,OPERATEUR,ANNEE,FILIERE,CODE_IRIS,ADRESSE,NOM_COMMUNE,CODE_GRAND_SECTEUR,CONSO,PDL
0,Enedis,2018,E,010040101,659 AVENUE LEON BLUM,AMBÉRIEU-EN-BUGEY,I,"852,40377",1
1,Enedis,2018,E,010040101,645 AVENUE LEON BLUM,AMBÉRIEU-EN-BUGEY,I,"61,78001",1
2,Enedis,2018,E,010040101,268 RUE DES MOUETTES,AMBÉRIEU-EN-BUGEY,I,"63,2543",1
3,Enedis,2018,E,010040101,72 AVENUE DE LA LIBERATION,AMBÉRIEU-EN-BUGEY,I,"929,53233",1
4,Enedis,2018,E,010040101,82 RUE DES MOUETTES,AMBÉRIEU-EN-BUGEY,R,"40,67797",22
5,Enedis,2018,E,010040101,84 RUE DES MOUETTES,AMBÉRIEU-EN-BUGEY,R,"43,31595",20
6,Enedis,2018,E,010040101,34 ALLEE DU 19 MARS 1962,AMBÉRIEU-EN-BUGEY,R,"26,9401",14
7,Enedis,2018,E,010040101,57 ALLEE DE LA BARBOTIERE,AMBÉRIEU-EN-BUGEY,R,"29,62867",26
8,Enedis,2018,E,010040101,54 AVENUE PAUL PAINLEVE,AMBÉRIEU-EN-BUGEY,R,"21,37093",10
9,Enedis,2018,E,010040101,78 ALLEE DU 19 MARS 1962,AMBÉRIEU-EN-BUGEY,R,"21,85362",14
10,Enedis,2018,E,010040101,38 B AVENUE PAUL PAINLEVE,AMBÉRIEU-EN-BUGEY,R,"63,55702",27
11,Enedis,2018,E,010040101,90 AVENUE DE VERDUN,AMBÉRIEU-EN-BUGEY,R,"110,86756",24
12,Enedis,2018,E,010040101,52 T AVENUE PAUL PAINLEVE,AMBÉRIEU-EN-BUGEY,R,"189,34806",22
13,Enedis,2018,E,010040101,56 ALLEE DU 19 MARS 1962,AMBÉRIEU-EN-BUGEY,R,"21,66372",14
14,Enedis,2018,E,010040101,85 ALLEE DE LA BARBOTIERE,AMBÉRIEU-EN-BUGEY,R,"43,01847",23
15,Enedis,2018,E,010040101,12 ALLEE DU 19 MARS 1962,AMBÉRIEU-EN-BUGEY,R,"24,54323",15
16,Enedis,2018,E,010040101,70 AVENUE DE LA LIBERATION,AMBÉRIEU-EN-BUGEY,T,"434,46453",2
17,Enedis,2018,E,010040101,418 AVENUE LEON BLUM,AMBÉRIEU-EN-BUGEY,T,"199,85783",2
18,Enedis,2018,E,010040101,540 AVENUE LEON BLUM,AMBÉRIEU-EN-BUGEY,T,"584,40488",1
19,Enedis,2018,E,010040101,625 AVENUE LEON BLUM,AMBÉRIEU-EN-BUGEY,T,"100,20363",1
20,Enedis,2018,E,010040101,64 AVENUE DE LA LIBERATION,AMBÉRIEU-EN-BUGEY,T,"70,03216",1
21,Enedis,2018,E,010040101,648 AVENUE LEON BLUM,AMBÉRIEU-EN-BUGEY,T,"107,48848",1
22,Enedis,2018,E,010040101,71 AVENUE DE LA LIBERATION,AMBÉRIEU-EN-BUGEY,T,"109,27434",1
23,Enedis,2018,E,010040101,1000 AVENUE LEON BLUM,AMBÉRIEU-EN-BUGEY,T,"60,58991",1
24,Enedis,2018,E,010040101,813 AVENUE LEON BLUM,AMBÉRIEU-EN-BUGEY,T,"160,5505",1
25,Enedis,2018,E,010040101,36 ALLEE DE LA BARBOTIERE,AMBÉRIEU-EN-BUGEY,T,"269,91033",1
26,Enedis,2018,E,010040101,11 RUE MARIUS BERLIET,AMBÉRIEU-EN-BUGEY,T,"723,40244",4
27,Enedis,2018,E,010040101,65 AVENUE DE LA LIBERATION,AMBÉRIEU-EN-BUGEY,T,"11,53491",1
28,Enedis,2018,E,010040102,11 C RUE JULES FERRY,AMBÉRIEU-EN-BUGEY,R,"9,71597",10
29,Enedis,2018,E,010040102,31 RUE JULES FERRY,AMBÉRIEU-EN-BUGEY,R,"19,12917",13
30,Enedis,2018,E,010040102,35 B RUE GUSTAVE NOBLEMAIRE,AMBÉRIEU-EN-BUGEY,R,"17,95226",13
31,Enedis,2018,E,010040102,29 B RUE JULES FERRY,AMBÉRIEU-EN-BUGEY,R,"119,09235",22
32,Enedis,2018,E,010040102,82 AVENUE DU GENERAL SARRAIL,AMBÉRIEU-EN-BUGEY,R,"25,79793",12
33,Enedis,2018,E,010040102,12 RUE GIROD DE L AIN,AMBÉRIEU-EN-BUGEY,R,"15,33613",10
34,Enedis,2018,E,010040102,12 RUE JEAN EMERY,AMBÉRIEU-EN-BUGEY,R,"40,90288",10
35,Enedis,2018,E,010040102,36 AVENUE ROGER SALENGRO,AMBÉRIEU-EN-BUGEY,R,"51,15638",13
36,Enedis,2018,E,010040102,71 T AVENUE ROGER SALENGRO,AMBÉRIEU-EN-BUGEY,R,"35,01536",18
37,Enedis,2018,E,010040102,1 RUE LOUIS ARMAND,AMBÉRIEU-EN-BUGEY,R,"52,10429",14
38,Enedis,2018,E,010040102,14 RUE GIROD DE L AIN,AMBÉRIEU-EN-BUGEY,R,"15,02135",10
39,Enedis,2018,E,010040102,71 Q AVENUE ROGER SALENGRO,AMBÉRIEU-EN-BUGEY,R,"39,87466",16
40,Enedis,2018,E,010040102,61 RUE BERTHELOT,AMBÉRIEU-EN-BUGEY,R,"74,30433",10
41,Enedis,2018,E,010040102,14 AVENUE DU GENERAL SARRAIL,AMBÉRIEU-EN-BUGEY,R,"44,9212",10
42,Enedis,2018,E,010040102,13 RUE SAINT EXUPERY,AMBÉRIEU-EN-BUGEY,R,"52,25897",10
43,Enedis,2018,E,010040102,7 RUE DE L ALBARINE,AMBÉRIEU-EN-BUGEY,R,"38,31346",13
44,Enedis,2018,E,010040102,1 PLACE SARRAIL,AMBÉRIEU-EN-BUGEY,R,"30,78812",15
45,Enedis,2018,E,010040102,3 RUE LOUIS ARMAND,AMBÉRIEU-EN-BUGEY,R,"74,21995",21
46,Enedis,2018,E,010040102,150 RUE BERTHELOT,AMBÉRIEU-EN-BUGEY,R,"182,07968",46
47,Enedis,2018,E,010040102,48 RUE GUSTAVE NOBLEMAIRE,AMBÉRIEU-EN-BUGEY,R,"43,02977",18
48,Enedis,2018,E,010040102,46 RUE GUSTAVE NOBLEMAIRE,AMBÉRIEU-EN-BUGEY,R,"40,74498",18
49,Enedis,2018,E,010040102,26 AVENUE DU GENERAL SARRAIL,AMBÉRIEU-EN-BUGEY,R,"63,62799",13
50,Enedis,2018,E,010040102,52 AVENUE ROGER SALENGRO,AMBÉRIEU-EN-BUGEY,R,"28,56755",19
51,Enedis,2018,E,010040102,3 AVENUE PAUL PAINLEVE,AMBÉRIEU-EN-BUGEY,R,"88,79223",12
52,Enedis,2018,E,010040102,15 RUE SAINT EXUPERY,AMBÉRIEU-EN-BUGEY,R,"34,24648",10
53,Enedis,2018,E,010040102,117 RUE BERTHELOT,AMBÉRIEU-EN-BUGEY,R,"51,43417",29
54,Enedis,2018,E,010040102,17 RUE SAINT EXUPERY,AMBÉRIEU-EN-BUGEY,R,"52,99803",10
55,Enedis,2018,E,010040102,71 B AVENUE ROGER SALENGRO,AMBÉRIEU-EN-BUGEY,R,"47,77998",18
56,Enedis,2018,E,010040102,14 RUE JEAN EMERY,AMBÉRIEU-EN-BUGEY,R,"37,49322",10
57,Enedis,2018,E,010040102,10 RUE JEAN EMERY,AMBÉRIEU-EN-BUGEY,R,"40,27798",10
58,Enedis,2018,E,010040102,23 AVENUE DE LA LIBERATION,AMBÉRIEU-EN-BUGEY,R,"73,41833",11
59,Enedis,2018,E,010040102,15 RUE LOUIS ARMAND,AMBÉRIEU-EN-BUGEY,R,"46,15071",21
60,Enedis,2018,E,010040102,78 AVENUE DU GENERAL SARRAIL,AMBÉRIEU-EN-BUGEY,R,"61,38678",29
61,Enedis,2018,E,010040102,80 RUE DE LA CROIX SAINT GEORGES,AMBÉRIEU-EN-BUGEY,T,"54,34068",1
62,Enedis,2018,E,010040102,180 RUE SAINT GEORGES,AMBÉRIEU-EN-BUGEY,T,"71,40342",1
63,Enedis,2018,E,010040102,5 RUE EMILE BRAVET,AMBÉRIEU-EN-BUGEY,T,"9,50889",1
64,Enedis,2018,E,010040102,37 AVENUE DE LA LIBERATION,AMBÉRIEU-EN-BUGEY,T,"175,86675",2
65,Enedis,2018,E,010040102,5 RUE BERTHELOT,AMBÉRIEU-EN-BUGEY,T,"17,37345",1
66,RTE,2018,E,010040102,D 1504,AMBÉRIEU-EN-BUGEY,T,"14018,505",1
67,Enedis,2018,E,010040201,133 RUE ALEXANDRE BERARD,AMBÉRIEU-EN-BUGEY,I,"198,54655",1
68,Enedis,2018,E,010040201,193 RUE ALEXANDRE BERARD,AMBÉRIEU-EN-BUGEY,I,"1,02049",1
69,Enedis,2018,E,010040201,37 CHEMIN DU DEPOT,AMBÉRIEU-EN-BUGEY,I,"88,85028",1
70,Enedis,2018,E,010040201,41 AVENUE DU GENERAL DE GAULLE,AMBÉRIEU-EN-BUGEY,R,"51,5179",19
71,Enedis,2018,E,010040201,2 RUE BELLIEVRE,AMBÉRIEU-EN-BUGEY,R,"25,40532",13
72,Enedis,2018,E,010040201,50 RUE DE LA REPUBLIQUE,AMBÉRIEU-EN-BUGEY,R,"19,26838",10
73,Enedis,2018,E,010040201,4 RUE BELLIEVRE,AMBÉRIEU-EN-BUGEY,R,"20,93196",13
74,Enedis,2018,E,010040201,141 RUE ALEXANDRE BERARD,AMBÉRIEU-EN-BUGEY,R,"18,93207",12
75,Enedis,2018,E,010040201,32 A RUE DU DEPOT,AMBÉRIEU-EN-BUGEY,R,"77,06351",14
76,Enedis,2018,E,010040201,6 PLACE SANVILLE,AMBÉRIEU-EN-BUGEY,R,"29,20939",11
77,Enedis,2018,E,010040201,222 RUE DE LA REPUBLIQUE,AMBÉRIEU-EN-BUGEY,R,"135,81708",22
78,Enedis,2018,E,010040201,2 B RUE DU CLOS DUTILLIER,AMBÉRIEU-EN-BUGEY,R,"58,88355",19
79,Enedis,2018,E,010040201,74 AVENUE ROGER VAILLAND,AMBÉRIEU-EN-BUGEY,R,"110,63455",28
80,Enedis,2018,E,010040201,42 RUE ALEXANDRE BERARD,AMBÉRIEU-EN-BUGEY,R,"72,02307",13
81,Enedis,2018,E,010040201,15 RUE DE GERLAND,AMBÉRIEU-EN-BUGEY,R,"61,09041",10
82,Enedis,2018,E,010040201,2 RUE JACQUES PREVERT,AMBÉRIEU-EN-BUGEY,R,"107,8156",24
83,Enedis,2018,E,010040201,3 RUE GEORGES BUTTARD,AMBÉRIEU-EN-BUGEY,R,"30,50613",10
84,Enedis,2018,E,010040201,25 RUE DE LA COMMUNE 1871,AMBÉRIEU-EN-BUGEY,R,"233,85883",42
85,Enedis,2018,E,010040201,32 RUE JEAN MONNET,AMBÉRIEU-EN-BUGEY,R,"22,86618",11
86,Enedis,2018,E,010040201,3 RUE JEANNE ET MARIUS LAPIERRE,AMBÉRIEU-EN-BUGEY,R,"14,58352",12
87,Enedis,2018,E,010040201,36 RUE DES APOTRES,AMBÉRIEU-EN-BUGEY,R,"56,85889",15
88,Enedis,2018,E,010040201,23 RUE SAINTE MARIE,AMBÉRIEU-EN-BUGEY,R,"18,36075",10
89,Enedis,2018,E,010040201,85 RUE ALEXANDRE BERARD,AMBÉRIEU-EN-BUGEY,R,"33,9437",12
90,Enedis,2018,E,010040201,1 RUE ALEXANDRE BERARD,AMBÉRIEU-EN-BUGEY,R,"43,90931",10
91,Enedis,2018,E,010040201,14 RUE AGUETANT,AMBÉRIEU-EN-BUGEY,R,"69,97668",30
92,Enedis,2018,E,010040201,71 RUE AIME PONCET,AMBÉRIEU-EN-BUGEY,R,"23,33717",15
93,Enedis,2018,E,010040201,32 B RUE DU DEPOT,AMBÉRIEU-EN-BUGEY,R,"93,33232",23
94,Enedis,2018,E,010040201,17 CHEMIN DE RONDE,AMBÉRIEU-EN-BUGEY,R,"36,70765",17
95,Enedis,2018,E,010040201,7 RUE DU DOCTEUR CORREARD,AMBÉRIEU-EN-BUGEY,R,"21,33934",14
96,Enedis,2018,E,010040201,68 RUE DE LA REPUBLIQUE,AMBÉRIEU-EN-BUGEY,R,"13,9485",12
97,Enedis,2018,E,010040201,6 RUE AGUETANT,AMBÉRIEU-EN-BUGEY,T,"145,07348",1
98,Enedis,2018,E,010040201,139 RUE ALEXANDRE BERARD,AMBÉRIEU-EN-BUGEY,T,"41,27316",1
99,Enedis,2018,E,010040201,13 RUE ALEXANDRE BERARD,AMBÉRIEU-EN-BUGEY,T,"82,90223",1
100,Enedis,2018,E,010040201,3 AVENUE DE VERDUN,AMBÉRIEU-EN-BUGEY,T,"209,93576",1
101,Enedis,2018,E,010040201,18 RUE HENRI DUNANT,AMBÉRIEU-EN-BUGEY,T,"280,6723",1
102,Enedis,2018,E,010040201,39 RUE ALEXANDRE BERARD,AMBÉRIEU-EN-BUGEY,T,"76,32326",1
103,Enedis,2018,E,010040201,15 RUE ALEXANDRE BERARD,AMBÉRIEU-EN-BUGEY,T,"49,92171",1
104,Enedis,2018,E,010040201,19 RUE ALEXANDRE BERARD,AMBÉRIEU-EN-BUGEY,T,"42,82058",1
105,Enedis,2018,E,010040201,2 RUE ALEXANDRE BERARD,AMBÉRIEU-EN-BUGEY,T,"38,41999",1
106,Enedis,2018,E,010040201,8 PLACE DU CHAMP DE MARS,AMBÉRIEU-EN-BUGEY,T,"69,59852",1
107,Enedis,2018,E,010040201,14 RUE AGUETANT,AMBÉRIEU-EN-BUGEY,T,"79,29587",1
108,Enedis,2018,E,010040201,21 RUE DU PENSIONNAT,AMBÉRIEU-EN-BUGEY,T,"134,26567",1
109,Enedis,2018,E,010040202,120 RUE DES APOTRES,AMBÉRIEU-EN-BUGEY,R,"42,11328",20
110,Enedis,2018,E,010040202,108 RUE DE VAREILLES,AMBÉRIEU-EN-BUGEY,R,"84,44379",18
111,Enedis,2018,E,010040202,48 AVENUE DU GENERAL DE GAULLE,AMBÉRIEU-EN-BUGEY,R,"25,04573",14
112,Enedis,2018,E,010040202,54 RUE MARCEL ET IDA DEMIA,AMBÉRIEU-EN-BUGEY,R,"175,4562",71
113,Enedis,2018,E,010040202,30 AVENUE DU GENERAL DE GAULLE,AMBÉRIEU-EN-BUGEY,R,"18,40734",12
114,Enedis,2018,E,010040202,44 AVENUE DU GENERAL DE GAULLE,AMBÉRIEU-EN-BUGEY,R,"24,16916",14
115,Enedis,2018,E,010040202,46 AVENUE DU GENERAL DE GAULLE,AMBÉRIEU-EN-BUGEY,R,"24,30799",14
116,Enedis,2018,E,010040202,256 RUE ALEXANDRE BERARD,AMBÉRIEU-EN-BUGEY,R,"125,02364",27
117,Enedis,2018,E,010040202,31 RUE DU DEPOT,AMBÉRIEU-EN-BUGEY,R,"60,47742",27
118,Enedis,2018,E,010040202,2 RUE DE LA BATISSE,AMBÉRIEU-EN-BUGEY,R,"24,42559",15
119,Enedis,2018,E,010040202,191 AVENUE JULES PELLAUDIN,AMBÉRIEU-EN-BUGEY,T,"77,24639",1
120,Enedis,2018,E,010040202,44 AVENUE JULES PELLAUDIN,AMBÉRIEU-EN-BUGEY,T,"2,68958",1
121,Enedis,2018,E,010040202,10 RUE DU DOCTEUR FRANCOISE DOLTO,AMBÉRIEU-EN-BUGEY,T,"71,85374",1
122,Enedis,2018,E,010040202,32 AVENUE DU GENERAL DE GAULLE,AMBÉRIEU-EN-BUGEY,T,"49,66602",1
123,Enedis,2018,E,010070000,36 GRANDE RUE,AMBRONAY,R,"19,39837",10
124,Enedis,2018,E,010100000,161 RUE DES GRANDES ILES,ANGLEFORT,R,"13,93508",10
125,Enedis,2018,E,010100000,183 RUE DES GRANDES ILES,ANGLEFORT,R,"18,63657",10
126,RTE,2018,E,010100000,,ANGLEFORT,I,"497359,3",1
127,Enedis,2018,E,010120000,115 RUE SUR CHARRIERE,ARANC,I,"362,24517",1
128,Enedis,2018,E,010140000,2 RUE DES SCIERIES,ARBENT,I,"4548,29867",1
129,Enedis,2018,E,010140000,3 RUE DE L INDUSTRIE,ARBENT,I,"556,09347",1
130,Enedis,2018,E,010140000,4 RUE DE L INDUSTRIE,ARBENT,I,"28,25877",1
131,Enedis,2018,E,010140000,9 B RUE DE LA TUILERIE,ARBENT,I,"51,37017",1
132,Enedis,2018,E,010140000,13 RUE FRANCOIS ROCHAIX,ARBENT,I,"34,327",1
133,Enedis,2018,E,010140000,416 AVENUE DU GENERAL ANDREA,ARBENT,I,"380,6115",1
134,Enedis,2018,E,010140000,30 RUE DE TAMAS,ARBENT,I,"5528,16067",1
135,Enedis,2018,E,010140000,33 RUE DE LA TUILERIE,ARBENT,I,"71,86316",1
136,Enedis,2018,E,010140000,3 RUE DE LA TUILERIE,ARBENT,I,"78,26215",1
137,Enedis,2018,E,010140000,5 RUE DE LA TUILERIE,ARBENT,I,"34,73276",1
138,Enedis,2018,E,010140000,6 RUE DE L INDUSTRIE,ARBENT,I,"41,83333",1
139,Enedis,2018,E,010140000,4 RUE PIERRE ET MARIE CURIE,ARBENT,R,"25,6738",14
140,Enedis,2018,E,010140000,2 IMPASSE DES CHARMILLES,ARBENT,R,"13,50565",11
141,Enedis,2018,E,010140000,19 RUE DE LA GUETTE,ARBENT,R,"187,96767",21
142,Enedis,2018,E,010140000,2 RUE PIERRE ET MARIE CURIE,ARBENT,R,"18,65373",12
143,Enedis,2018,E,010140000,1 RUE DES CYTISES,ARBENT,R,"36,15542",20
144,Enedis,2018,E,010140000,1 RUE DES EPICEAS,ARBENT,R,"21,19831",16
145,Enedis,2018,E,010140000,5 RUE DES CYTISES,ARBENT,R,"31,98776",20
146,Enedis,2018,E,010140000,2 RUE DES EPICEAS,ARBENT,R,"37,73423",20
147,Enedis,2018,E,010140000,4 IMPASSE DES CHARMILLES,ARBENT,R,"15,68613",11
148,Enedis,2018,E,010140000,3 RUE DES CYTISES,ARBENT,R,"27,15729",19
149,Enedis,2018,E,010140000,8 RUE PIERRE ET MARIE CURIE,ARBENT,R,"28,05187",20
150,Enedis,2018,E,010140000,1 RUE DES ECHALLYS,ARBENT,R,"35,45203",22
151,Enedis,2018,E,010140000,4 RUE DES ECHALLYS,ARBENT,R,"33,51389",12
152,Enedis,2018,E,010140000,2 RUE DES ECHALLYS,ARBENT,R,"33,6389",13
153,Enedis,2018,E,010140000,3 RUE DES ECHALLYS,ARBENT,R,"34,06296",22
154,Enedis,2018,E,010140000,6 RUE PIERRE ET MARIE CURIE,ARBENT,R,"21,37321",14
155,Enedis,2018,E,010140000,2 RUE DU 1ER MAI,ARBENT,T,"248,97323",1
156,Enedis,2018,E,010140000,5 RUE MARCEL GAGET,ARBENT,T,"208,1959",1
157,Enedis,2018,E,010140000,9 RUE DE LA TUILERIE,ARBENT,T,"29,33167",1
158,Enedis,2018,E,010140000,10 RUE DU LARDON,ARBENT,T,"49,47235",1
159,Enedis,2018,E,010140000,17 RUE DU GENERAL DE GAULLE,ARBENT,T,"36,03729",1
160,Enedis,2018,E,010140000,2 RUE DE LA TUILERIE,ARBENT,T,"55,38292",1
161,Enedis,2018,E,010140000,14 ALLEE DES FLEURS,ARBENT,T,"62,52159",1
162,Enedis,2018,E,010140000,2 RUE DE L INDUSTRIE,ARBENT,T,"24,15296",1
163,Enedis,2018,E,010140000,1080 AVENUE DU GENERAL ANDREA,ARBENT,T,"57,24787",1
164,Enedis,2018,E,010140000,10 RUE DE LA TUILERIE,ARBENT,T,"143,04345",1
165,Enedis,2018,E,010140000,1 RUE FRANCOIS ROCHAIX,ARBENT,T,"212,65183",1
166,Enedis,2018,E,010140000,795 AVENUE DU 19 MARS 1962,ARBENT,T,"178,90605",1
167,Enedis,2018,E,010140000,5 RUE DU MARAIS,ARBENT,T,"297,77633",1
168,Enedis,2018,E,010140000,6 RUE DE TAMAS,ARBENT,T,"38,1107",1
169,Enedis,2018,E,010140000,445 AVENUE JEAN COUTTY,ARBENT,T,"84,84771",1
170,Enedis,2018,E,010240000,423 GRANDE RUE,ATTIGNAT,R,"13,22251",12
171,Enedis,2018,E,010240000,1876 ROUTE DES GREFFETS,ATTIGNAT,R,"89,81388",11
172,Enedis,2018,E,010240000,433 GRANDE RUE,ATTIGNAT,R,"74,01551",15
173,Enedis,2018,E,010240000,87 RUE DE L EGLISE,ATTIGNAT,R,"34,34596",21
174,Enedis,2018,E,010240000,101 RUE DE L EGLISE,ATTIGNAT,R,"14,18702",10
175,Enedis,2018,E,010240000,428 GRANDE RUE,ATTIGNAT,R,"30,21194",20
176,Enedis,2018,E,010240000,30 RUE DE L ANCIEN MARCHE,ATTIGNAT,R,"36,17001",16
177,Enedis,2018,E,010240000,185 RUE DE L INDUSTRIE,ATTIGNAT,R,"21,0938",24
178,Enedis,2018,E,010240000,109 ALLEE DE LA GARE,ATTIGNAT,R,"32,06276",11
179,Enedis,2018,E,010240000,386 CHEMIN TERRE DU FORT,ATTIGNAT,R,"18,47228",12
180,Enedis,2018,E,010240000,40 B ALLEE DES NEGOCIANTS,ATTIGNAT,T,"24,79688",1
181,Enedis,2018,E,010240000,317 RUE DE L EGLISE,ATTIGNAT,T,"44,35731",1
182,Enedis,2018,E,010250000,755 ROUTE DE TERRASSE,BÂGÉ-DOMMARTIN,A,"122,70501",1
183,Enedis,2018,E,010250000,353 ROUTE DE LA CHANEAZ,BÂGÉ-DOMMARTIN,A,"142,63935",1
184,Enedis,2018,E,010250000,287 ROUTE DU BOURG,BÂGÉ-DOMMARTIN,R,"80,30168",10
185,Enedis,2018,E,010250000,385 ROUTE DU BOURG,BÂGÉ-DOMMARTIN,R,"127,18285",13
186,Enedis,2018,E,010250000,353 ROUTE DU COLOMBIER,BÂGÉ-DOMMARTIN,R,"43,46346",19
187,Enedis,2018,E,010250000,97 RUE DE LA MARPA,BÂGÉ-DOMMARTIN,R,"29,40532",10
188,Enedis,2018,E,010250000,1060 ROUTE DE PONT DE VAUX,BÂGÉ-DOMMARTIN,T,"60,04229",1
189,Enedis,2018,E,010250000,131 RUE DE LA MAIRIE,BÂGÉ-DOMMARTIN,T,"167,72164",1
190,Enedis,2018,E,010250000,15 CHEMIN DU GRAND CHENE,BÂGÉ-DOMMARTIN,T,"80,30557",1
191,Enedis,2018,E,010260000,42 RUE MARSALE,BÂGÉ-LE-CHÂTEL,I,"101,98574",1
192,Enedis,2018,E,010260000,375 RUE FRANCOIS D URFE,BÂGÉ-LE-CHÂTEL,R,"37,70187",13
193,Enedis,2018,E,010260000,22 GRANDE RUE,BÂGÉ-LE-CHÂTEL,T,"17,5542",1
194,Enedis,2018,E,010270000,183 RUE DES SAPINETTES,BALAN,I,"44,85306",1
195,Enedis,2018,E,010270000,65 RUE DES SAPINETTES,BALAN,I,"632,04007",2
196,Enedis,2018,E,010270000,312 RUE DU STADE,BALAN,R,"52,04803",12
197,Enedis,2018,E,010270000,1602 RUE DE LYON,BALAN,R,"76,61446",13
198,Enedis,2018,E,010270000,53 RUE CENTRALE,BALAN,T,"187,01898",1
199,RTE,2018,E,010270000,HORS PERIMETRE,BALAN,I,"126936,826",2
200,Enedis,2018,E,010300000,1 IMPASSE DE LA SABLIERE,BEAUREGARD,R,"28,37945",13
201,Enedis,2018,E,010300000,2 IMPASSE DE LA SABLIERE,BEAUREGARD,R,"32,4746",14
202,Enedis,2018,E,010310000,5 RUE CASTELLION PROLONGEE,BELLIGNAT,I,"13920,19367",1
203,Enedis,2018,E,010310000,12 RUE DU MOULIN,BELLIGNAT,I,"168,41905",1
204,Enedis,2018,E,010310000,29 AVENUE D OYONNAX,BELLIGNAT,I,"68,35891",1
205,Enedis,2018,E,010310000,54 AVENUE D OYONNAX,BELLIGNAT,I,"6,35133",1
206,Enedis,2018,E,010310000,641 RUE DE L ANGE,BELLIGNAT,I,"46,27812",1
207,Enedis,2018,E,010310000,1151 RUE DE L ANGE,BELLIGNAT,I,"176,13863",1
208,Enedis,2018,E,010310000,50 AVENUE D OYONNAX,BELLIGNAT,I,"2164,99333",1
209,Enedis,2018,E,010310000,850 RUE DE L ANGE,BELLIGNAT,I,"0,698",1
210,Enedis,2018,E,010310000,5 RUE DU MOULIN,BELLIGNAT,I,"43,9918",1
211,Enedis,2018,E,010310000,10 AVENUE DE LA GARE,BELLIGNAT,I,"64,48599",1
212,Enedis,2018,E,010310000,5 IMPASSE DE LA CURE,BELLIGNAT,I,"34,95596",1
213,Enedis,2018,E,010310000,19 RUE DU MOULIN,BELLIGNAT,I,"55,72775",1
214,Enedis,2018,E,010310000,801 RUE DE L ANGE,BELLIGNAT,I,"85,01349",1
215,Enedis,2018,E,010310000,8 RUE DU MOULIN,BELLIGNAT,I,"185,71247",1
216,Enedis,2018,E,010310000,58 AVENUE D OYONNAX,BELLIGNAT,I,"157,00674",1
217,Enedis,2018,E,010310000,46 AVENUE D OYONNAX,BELLIGNAT,I,"7707,409",1
218,Enedis,2018,E,010310000,400 RUE DE LA PRAIRIE,BELLIGNAT,I,"774,09057",1
219,Enedis,2018,E,010310000,170 IMPASSE DES PEUPLIERS,BELLIGNAT,I,"145,28765",1
220,Enedis,2018,E,010310000,1 AVENUE VICTOR HUGO,BELLIGNAT,I,"1361,26483",1
221,Enedis,2018,E,010310000,1070 RUE DE L ANGE,BELLIGNAT,I,"60,8673",1
222,Enedis,2018,E,010310000,16 RUE DU MOULIN,BELLIGNAT,I,"28,63208",1
223,Enedis,2018,E,010310000,300 RUE DE LA PRAIRIE,BELLIGNAT,I,"2869,74133",1
224,Enedis,2018,E,010310000,4 AVENUE DE LA GARE,BELLIGNAT,I,"12,00844",1
225,Enedis,2018,E,010310000,1150 RUE DE L ANGE,BELLIGNAT,I,"117,31776",1
226,Enedis,2018,E,010310000,6 RUE DU MOULIN,BELLIGNAT,I,"1088,391",1
227,Enedis,2018,E,010310000,285 IMPASSE DES PEUPLIERS,BELLIGNAT,I,"5335,41233",2
228,Enedis,2018,E,010310000,1 RUE DU MOULIN,BELLIGNAT,I,"12,58113",1
229,Enedis,2018,E,010310000,8 B AVENUE DE LA GARE,BELLIGNAT,I,"30,60672",1
230,Enedis,2018,E,010310000,1 B RUE DENIS PAPIN,BELLIGNAT,R,"15,46739",13
231,Enedis,2018,E,010310000,1 RUE GERARD DE NERVAL,BELLIGNAT,R,"98,90213",19
232,Enedis,2018,E,010310000,1 RUE LOUIS BRAILLE,BELLIGNAT,R,"43,39572",23
233,Enedis,2018,E,010310000,5 RUE JULES VALLES,BELLIGNAT,R,"110,29918",32
234,Enedis,2018,E,010310000,10 RUE LOUIS BRAILLE,BELLIGNAT,R,"61,12719",19
235,Enedis,2018,E,010310000,7 RUE JULES VALLES,BELLIGNAT,R,"82,09939",24
236,Enedis,2018,E,010310000,2 PLACE DE L HOTEL DE VILLE,BELLIGNAT,R,"21,34112",12
237,Enedis,2018,E,010310000,1 RUE JULES VALLES,BELLIGNAT,R,"69,31296",20
238,Enedis,2018,E,010310000,5 AVENUE VICTOR HUGO,BELLIGNAT,R,"89,64706",21
239,Enedis,2018,E,010310000,15 RUE DU MONT OLIVET,BELLIGNAT,R,"12,98275",10
240,Enedis,2018,E,010310000,2 RUE LOUIS BRAILLE,BELLIGNAT,R,"51,28015",15
241,Enedis,2018,E,010310000,3 PLACE DES ARCADES,BELLIGNAT,R,"49,32314",13
242,Enedis,2018,E,010310000,2 A RUE DENIS PAPIN,BELLIGNAT,R,"20,36312",12
243,Enedis,2018,E,010310000,1 RUE DES SOURCES,BELLIGNAT,R,"21,0146",12
244,Enedis,2018,E,010310000,5 PLACE DES ARCADES,BELLIGNAT,R,"64,83525",16
245,Enedis,2018,E,010310000,2 RUE CLAUDE BERNARD,BELLIGNAT,R,"80,85658",22
246,Enedis,2018,E,010310000,6 RUE LOUIS BRAILLE,BELLIGNAT,R,"23,60056",11
247,Enedis,2018,E,010310000,2 RUE DES SOURCES,BELLIGNAT,R,"23,5165",14
248,Enedis,2018,E,010310000,3 RUE GUSTAVE EIFFEL,BELLIGNAT,R,"20,23612",13
249,Enedis,2018,E,010310000,3 RUE DES SOURCES,BELLIGNAT,R,"23,07013",14
250,Enedis,2018,E,010310000,4 RUE DE LA GRANDE FONTAINE,BELLIGNAT,R,"18,71256",11
251,Enedis,2018,E,010310000,3 RUE LOUIS BRAILLE,BELLIGNAT,R,"31,91579",15
252,Enedis,2018,E,010310000,8 RUE LOUIS BRAILLE,BELLIGNAT,R,"48,71888",14
253,Enedis,2018,E,010310000,1 RUE GUSTAVE EIFFEL,BELLIGNAT,R,"18,52313",14
254,Enedis,2018,E,010310000,3 T PLACE DE L HOTEL DE VILLE,BELLIGNAT,R,"60,33066",11
255,Enedis,2018,E,010310000,1 RUE JULES VERNE,BELLIGNAT,R,"20,53553",12
256,Enedis,2018,E,010310000,3 RUE JULES VALLES,BELLIGNAT,R,"80,23228",28
257,Enedis,2018,E,010310000,19 RUE DU MONT OLIVET,BELLIGNAT,R,"9,67359",10
258,Enedis,2018,E,010310000,5 RUE LOUIS BRAILLE,BELLIGNAT,R,"17,30584",11
259,Enedis,2018,E,010310000,21 RUE DU MONT OLIVET,BELLIGNAT,R,"10,37673",10
260,Enedis,2018,E,010310000,86 RUE GUSTAVE EIFFEL,BELLIGNAT,R,"478,61863",110
261,Enedis,2018,E,010310000,5 RUE LEONARD DE VINCI,BELLIGNAT,R,"17,83212",12
262,Enedis,2018,E,010310000,7 RUE LOUIS BRAILLE,BELLIGNAT,R,"32,54919",19
263,Enedis,2018,E,010310000,3 AVENUE VICTOR HUGO,BELLIGNAT,R,"62,32208",17
264,Enedis,2018,E,010310000,1 A RUE DENIS PAPIN,BELLIGNAT,R,"14,59333",11
265,Enedis,2018,E,010310000,1 B RUE PIERRE ET MARIE CURIE,BELLIGNAT,R,"24,97396",45
266,Enedis,2018,E,010310000,7 PLACE DES ARCADES,BELLIGNAT,R,"41,20014",12
267,Enedis,2018,E,010310000,4 PLACE DE L HOTEL DE VILLE,BELLIGNAT,R,"22,79056",12
268,Enedis,2018,E,010310000,4 RUE CLAUDE BERNARD,BELLIGNAT,R,"77,73095",19
269,Enedis,2018,E,010310000,17 RUE DU MONT OLIVET,BELLIGNAT,R,"17,14059",10
270,Enedis,2018,E,010310000,4 RUE LOUIS BRAILLE,BELLIGNAT,R,"34,5532",21
271,Enedis,2018,E,010310000,9 RUE JULES VALLES,BELLIGNAT,R,"86,76212",32
272,Enedis,2018,E,010310000,2 RUE DE LA GRANDE FONTAINE,BELLIGNAT,R,"18,28346",11
273,Enedis,2018,E,010310000,3 B PLACE DE L HOTEL DE VILLE,BELLIGNAT,R,"68,15192",15
274,Enedis,2018,E,010310000,3 RUE LEONARD DE VINCI,BELLIGNAT,R,"17,24793",12
275,Enedis,2018,E,010310000,50 B ROUTE DE LA FORGE,BELLIGNAT,R,"59,92227",17
276,Enedis,2018,E,010310000,2 AVENUE DE LA GARE,BELLIGNAT,R,"22,71725",10
277,Enedis,2018,E,010310000,12 RUE LOUIS BRAILLE,BELLIGNAT,R,"56,32991",14
278,Enedis,2018,E,010310000,1 B RUE D IZERNORE,BELLIGNAT,R,"34,93747",17
279,Enedis,2018,E,010310000,8 AVENUE DE LA GARE,BELLIGNAT,T,"235,79888",1
280,Enedis,2018,E,010310000,2 RUE PIERRE ET MARIE CURIE,BELLIGNAT,T,"1935,67417",1
281,Enedis,2018,E,010310000,3 AVENUE VICTOR HUGO,BELLIGNAT,T,"94,92018",1
282,Enedis,2018,E,010310000,1110 RUE DE L ANGE,BELLIGNAT,T,"72,32617",1
283,Enedis,2018,E,010310000,2 AVENUE VICTOR HUGO,BELLIGNAT,T,"85,89938",1
284,Enedis,2018,E,010310000,970 RUE DE L ANGE,BELLIGNAT,T,"31,53852",1
285,Enedis,2018,E,010310000,1 RUE DU BAC,BELLIGNAT,T,"22,98068",1
286,Enedis,2018,E,010310000,1 RUE GERARD DE NERVAL,BELLIGNAT,T,"60,23821",1
287,Enedis,2018,E,010310000,60 AVENUE D OYONNAX,BELLIGNAT,T,"21,35517",1
288,Enedis,2018,E,010310000,1231 RUE DE L ANGE,BELLIGNAT,T,"72,51367",1
289,Enedis,2018,E,010310000,21 ROUTE D ALEX,BELLIGNAT,T,"41,41726",1
290,Enedis,2018,E,010310000,13 RUE DU MOULIN,BELLIGNAT,T,"1,85622",1
291,Enedis,2018,E,010310000,1 RUE PIERRE ET MARIE CURIE,BELLIGNAT,T,"1015,483",1
292,Enedis,2018,E,010310000,7 RUE DU MOULIN,BELLIGNAT,T,"40,85864",1
293,Enedis,2018,E,010310000,85 RUE BECQUEREL,BELLIGNAT,T,"29,16607",1
294,Enedis,2018,E,010310000,201 RUE BECQUEREL,BELLIGNAT,T,"109,68617",1
295,Enedis,2018,E,010310000,1 AVENUE VICTOR HUGO,BELLIGNAT,T,"72,08379",1
296,Enedis,2018,E,010320000,380 CHEMIN DU DERONTET,BÉLIGNEUX,A,"37,71511",1
297,Enedis,2018,E,010320000,380 CHEMIN DU DERONTET,BÉLIGNEUX,I,"33,52655",1
298,Enedis,2018,E,010320000,3148 ROUTE DU DAUPHINE,BÉLIGNEUX,I,"323,79096",1
299,Enedis,2018,E,010320000,106 RUE DE L EUROPE,BÉLIGNEUX,R,"26,92114",15
300,Enedis,2018,E,010320000,792 ROUTE DE GENEVE,BÉLIGNEUX,R,"20,62776",11
301,Enedis,2018,E,010320000,165 ROUTE DE GENEVE,BÉLIGNEUX,R,"60,7039",11
302,Enedis,2018,E,010320000,133 ROUTE DE GENEVE,BÉLIGNEUX,R,"41,09262",10
303,Enedis,2018,E,010320000,82 RUE DU PROFESSEUR ROBERT HUGONOT,BÉLIGNEUX,R,"39,83185",15
304,Enedis,2018,E,010320000,53 RESIDENCE DES PINS,BÉLIGNEUX,R,"116,84038",32
305,Enedis,2018,E,010320000,53 CITE DES BAINS,BÉLIGNEUX,R,"27,778",10
306,Enedis,2018,E,010320000,55 CITE DES BAINS,BÉLIGNEUX,R,"23,0419",10
307,Enedis,2018,E,010320000,78 RUE DE L EUROPE,BÉLIGNEUX,R,"30,37659",15
308,Enedis,2018,E,010320000,154 RUE DE L EUROPE,BÉLIGNEUX,T,"81,70205",1
309,Enedis,2018,E,010320000,150 CHEMIN DU DERONTET,BÉLIGNEUX,T,"51,50639",1
310,Enedis,2018,E,010320000,429 CHEMIN DU DERONTET,BÉLIGNEUX,T,"16,32683",1
311,Enedis,2018,E,010320000,460 CHEMIN DU DERONTET,BÉLIGNEUX,T,"97,61868",1
312,Enedis,2018,E,010320000,416 ZONE D ACTIV DES 2 B,BÉLIGNEUX,T,"90,88275",1
313,Enedis,2018,E,010320000,460 ZONE D ACTIV DES 2 B,BÉLIGNEUX,T,"64,21449",1
314,Enedis,2018,E,010330101,2 RUE JOSEPH MARION,BELLEGARDE-SUR-VALSERINE,I,"71,90781",1
315,Enedis,2018,E,010330101,48 RUE JOSEPH MARION,BELLEGARDE-SUR-VALSERINE,R,"65,43802",32
316,Enedis,2018,E,010330101,47 RUE HOCHE,BELLEGARDE-SUR-VALSERINE,R,"22,66377",15
317,Enedis,2018,E,010330101,4 PLACE CECILE MARTIN,BELLEGARDE-SUR-VALSERINE,R,"77,21193",12
318,Enedis,2018,E,010330101,8 PLACE CECILE MARTIN,BELLEGARDE-SUR-VALSERINE,R,"39,3473",15
319,Enedis,2018,E,010330101,6 PLACE CECILE MARTIN,BELLEGARDE-SUR-VALSERINE,R,"43,05981",15
320,Enedis,2018,E,010330101,4 RUE MARTHE PERRIN,BELLEGARDE-SUR-VALSERINE,R,"13,54643",11
321,Enedis,2018,E,010330101,16 RUE JULES FERRY,BELLEGARDE-SUR-VALSERINE,T,"60,65214",1
322,Enedis,2018,E,010330102,4 PLACE HENRI DUNANT,BELLEGARDE-SUR-VALSERINE,I,"238,792",1
323,Enedis,2018,E,010330102,58 RUE DE LA REPUBLIQUE,BELLEGARDE-SUR-VALSERINE,I,"111,7822",1
324,Enedis,2018,E,010330102,45 RUE DE LA REPUBLIQUE,BELLEGARDE-SUR-VALSERINE,I,"67,8345",1
325,Enedis,2018,E,010330102,5 RUE BARA,BELLEGARDE-SUR-VALSERINE,R,"150,81215",18
326,Enedis,2018,E,010330102,7 RUE DES PAPETIERS,BELLEGARDE-SUR-VALSERINE,R,"175,00355",28
327,Enedis,2018,E,010330102,10 RUE CHARCOT,BELLEGARDE-SUR-VALSERINE,R,"53,96228",12
328,Enedis,2018,E,010330102,13 RUE JEAN JAURES,BELLEGARDE-SUR-VALSERINE,R,"73,16452",11
329,Enedis,2018,E,010330102,67 RUE DE LA REPUBLIQUE,BELLEGARDE-SUR-VALSERINE,R,"49,53631",16
330,Enedis,2018,E,010330102,18 RUE JOSEPH BERTOLA,BELLEGARDE-SUR-VALSERINE,R,"61,49236",11
331,Enedis,2018,E,010330102,25 RUE DE LA REPUBLIQUE,BELLEGARDE-SUR-VALSERINE,R,"84,11189",15
332,Enedis,2018,E,010330102,2 RUE ZEPHIRIN JEANTET,BELLEGARDE-SUR-VALSERINE,R,"32,57849",16
333,Enedis,2018,E,010330102,22 RUE VIALA,BELLEGARDE-SUR-VALSERINE,R,"103,84056",17
334,Enedis,2018,E,010330102,20 RUE PARMENTIER,BELLEGARDE-SUR-VALSERINE,R,"21,19558",10
335,Enedis,2018,E,010330102,11 AVENUE DE LA GARE,BELLEGARDE-SUR-VALSERINE,R,"84,66138",12
336,Enedis,2018,E,010330102,17 B AVENUE DE LA GARE,BELLEGARDE-SUR-VALSERINE,R,"44,55359",12
337,Enedis,2018,E,010330102,19 RUE JEAN JAURES,BELLEGARDE-SUR-VALSERINE,R,"95,12201",20
338,Enedis,2018,E,010330102,5 RUE VIALA,BELLEGARDE-SUR-VALSERINE,R,"70,12938",11
339,Enedis,2018,E,010330102,12 RUE VIALA,BELLEGARDE-SUR-VALSERINE,R,"100,35247",20
340,Enedis,2018,E,010330102,4 RUE ZEPHIRIN JEANTET,BELLEGARDE-SUR-VALSERINE,R,"30,48927",17
341,Enedis,2018,E,010330102,28 RUE LA FAYETTE,BELLEGARDE-SUR-VALSERINE,R,"68,09381",12
342,Enedis,2018,E,010330102,2 RUE FRANCIS,BELLEGARDE-SUR-VALSERINE,R,"21,47062",14
343,Enedis,2018,E,010330102,10 RUE LAMARTINE,BELLEGARDE-SUR-VALSERINE,R,"12,42041",10
344,Enedis,2018,E,010330102,16 RUE JOSEPH BERTOLA,BELLEGARDE-SUR-VALSERINE,R,"81,74853",12
345,Enedis,2018,E,010330102,63 RUE DE LA REPUBLIQUE,BELLEGARDE-SUR-VALSERINE,R,"46,52768",16
346,Enedis,2018,E,010330102,4 RUE GEORGES MARIN,BELLEGARDE-SUR-VALSERINE,R,"126,73032",25
347,Enedis,2018,E,010330102,2 PLACE HENRI DUNANT,BELLEGARDE-SUR-VALSERINE,R,"68,84788",18
348,Enedis,2018,E,010330102,24 RUE JOSEPH BERTOLA,BELLEGARDE-SUR-VALSERINE,R,"23,77348",12
349,Enedis,2018,E,010330102,59 RUE DE LA REPUBLIQUE,BELLEGARDE-SUR-VALSERINE,R,"29,36024",10
350,Enedis,2018,E,010330102,4 PLACE HENRI DUNANT,BELLEGARDE-SUR-VALSERINE,R,"71,97481",24
351,Enedis,2018,E,010330102,13 RUE DES PAPETIERS,BELLEGARDE-SUR-VALSERINE,R,"131,97696",20
352,Enedis,2018,E,010330102,7 RUE GEORGES MARIN,BELLEGARDE-SUR-VALSERINE,R,"189,42445",32
353,Enedis,2018,E,010330102,1 PLACE HENRI DUNANT,BELLEGARDE-SUR-VALSERINE,R,"72,85669",49
354,Enedis,2018,E,010330102,2 RUE LAMARTINE,BELLEGARDE-SUR-VALSERINE,R,"94,50121",14
355,Enedis,2018,E,010330102,20 RUE VIALA,BELLEGARDE-SUR-VALSERINE,R,"145,54114",24
356,Enedis,2018,E,010330102,3 RUE GEORGES MARIN,BELLEGARDE-SUR-VALSERINE,R,"89,85041",16
357,Enedis,2018,E,010330102,75 RUE LA FAYETTE,BELLEGARDE-SUR-VALSERINE,R,"46,89552",10
358,Enedis,2018,E,010330102,20 RUE LAMARTINE,BELLEGARDE-SUR-VALSERINE,R,"49,9369",11
359,Enedis,2018,E,010330102,2 RUE PAUL PAINLEVE,BELLEGARDE-SUR-VALSERINE,R,"37,54602",13
360,Enedis,2018,E,010330102,22 RUE PARMENTIER,BELLEGARDE-SUR-VALSERINE,R,"61,4457",16
361,Enedis,2018,E,010330102,32 RUE DE SAVOIE,BELLEGARDE-SUR-VALSERINE,R,"138,67275",28
362,Enedis,2018,E,010330102,6 RUE GEORGES MARIN,BELLEGARDE-SUR-VALSERINE,R,"150,2457",29
363,Enedis,2018,E,010330102,60 RUE DE SAVOIE,BELLEGARDE-SUR-VALSERINE,R,"131,77299",28
364,Enedis,2018,E,010330102,25 B RUE LAMARTINE,BELLEGARDE-SUR-VALSERINE,R,"11,2037",10
365,Enedis,2018,E,010330102,8 RUE GEORGES MARIN,BELLEGARDE-SUR-VALSERINE,R,"151,56494",31
366,Enedis,2018,E,010330102,5 RUE AMPERE,BELLEGARDE-SUR-VALSERINE,R,"115,26427",16
367,Enedis,2018,E,010330102,10 RUE DU DOCTEUR JEAN MALET,BELLEGARDE-SUR-VALSERINE,R,"47,25581",10
368,Enedis,2018,E,010330102,11 RUE DE LA REPUBLIQUE,BELLEGARDE-SUR-VALSERINE,R,"57,7575",10
369,Enedis,2018,E,010330102,3 RUE DES PAPETIERS,BELLEGARDE-SUR-VALSERINE,R,"84,48197",13
370,Enedis,2018,E,010330102,3 PLACE HENRI DUNANT,BELLEGARDE-SUR-VALSERINE,R,"89,26149",48
371,Enedis,2018,E,010330102,65 RUE DE LA REPUBLIQUE,BELLEGARDE-SUR-VALSERINE,R,"41,91751",16
372,Enedis,2018,E,010330102,7 RUE AMPERE,BELLEGARDE-SUR-VALSERINE,R,"80,62378",14
373,Enedis,2018,E,010330102,19 RUE LA FAYETTE,BELLEGARDE-SUR-VALSERINE,R,"47,41961",10
374,Enedis,2018,E,010330102,7 RUE VIALA,BELLEGARDE-SUR-VALSERINE,R,"57,33043",12
375,Enedis,2018,E,010330102,10 RUE VIALA,BELLEGARDE-SUR-VALSERINE,R,"99,76534",15
376,Enedis,2018,E,010330102,15 RUE LA FAYETTE,BELLEGARDE-SUR-VALSERINE,R,"75,9366",14
377,Enedis,2018,E,010330102,10 RUE DU DOCTEUR JEAN MALET,BELLEGARDE-SUR-VALSERINE,T,"13,24784",1
378,Enedis,2018,E,010330102,19 RUE JOSEPH BERTOLA,BELLEGARDE-SUR-VALSERINE,T,"91,1746",1
379,Enedis,2018,E,010330102,3 RUE PARMENTIER,BELLEGARDE-SUR-VALSERINE,T,"27,60386",1
380,Enedis,2018,E,010330102,49 RUE DE LA REPUBLIQUE,BELLEGARDE-SUR-VALSERINE,T,"11,24523",1
381,Enedis,2018,E,010330102,69 RUE DE LA REPUBLIQUE,BELLEGARDE-SUR-VALSERINE,T,"786,19767",1
382,Enedis,2018,E,010330102,86 RUE DE LA REPUBLIQUE,BELLEGARDE-SUR-VALSERINE,T,"51,00633",1
383,Enedis,2018,E,010330102,1 RUE DE LA REPUBLIQUE,BELLEGARDE-SUR-VALSERINE,T,"59,00468",1
384,Enedis,2018,E,010330102,1 RUE PARMENTIER,BELLEGARDE-SUR-VALSERINE,T,"82,19922",1
385,Enedis,2018,E,010330102,15 RUE DE L INDUSTRIE,BELLEGARDE-SUR-VALSERINE,T,"68,70342",1
386,Enedis,2018,E,010330102,60 RUE DE LA REPUBLIQUE,BELLEGARDE-SUR-VALSERINE,T,"54,7188",1
387,Enedis,2018,E,010330102,8 RUE ZEPHIRIN JEANTET,BELLEGARDE-SUR-VALSERINE,T,"109,78904",1
388,Enedis,2018,E,010330102,6 RUE DU DOCTEUR JEAN MALET,BELLEGARDE-SUR-VALSERINE,T,"37,68774",1
389,Enedis,2018,E,010330102,19 RUE JEAN JAURES,BELLEGARDE-SUR-VALSERINE,T,"26,94222",1
390,Enedis,2018,E,010330102,43 RUE DE LA REPUBLIQUE,BELLEGARDE-SUR-VALSERINE,T,"15,30146",1
391,Enedis,2018,E,010330102,1 RUE JOSEPH BERTOLA,BELLEGARDE-SUR-VALSERINE,T,"144,86473",1
392,Enedis,2018,E,010330102,9 RUE JOSEPH BERTOLA,BELLEGARDE-SUR-VALSERINE,T,"55,32008",1
393,Enedis,2018,E,010330201,352 ROUTE DE VOUVRAY,BELLEGARDE-SUR-VALSERINE,I,"136,80106",1
394,Enedis,2018,E,010330201,46 RUE DES JONQUILLES,BELLEGARDE-SUR-VALSERINE,R,"28,60353",20
395,Enedis,2018,E,010330201,42 RUE BUFFON,BELLEGARDE-SUR-VALSERINE,R,"39,99396",11
396,Enedis,2018,E,010330201,44 RUE BUFFON,BELLEGARDE-SUR-VALSERINE,R,"38,05129",10
397,Enedis,2018,E,010330201,48 RUE DES JONQUILLES,BELLEGARDE-SUR-VALSERINE,R,"18,99596",20
398,Enedis,2018,E,010330201,34 RUE DES LILAS,BELLEGARDE-SUR-VALSERINE,R,"63,68744",10
399,Enedis,2018,E,010330201,305 RUE ANTOINE FAVRE,BELLEGARDE-SUR-VALSERINE,R,"15,89965",11
400,Enedis,2018,E,010330201,8 RUE DE RICHEMONT,BELLEGARDE-SUR-VALSERINE,R,"13,01501",10
401,Enedis,2018,E,010330201,4 RUE DE TURENNE,BELLEGARDE-SUR-VALSERINE,R,"26,54467",15
402,Enedis,2018,E,010330201,46 RUE BUFFON,BELLEGARDE-SUR-VALSERINE,R,"53,09562",14
403,Enedis,2018,E,010330201,3 RUE DE TURENNE,BELLEGARDE-SUR-VALSERINE,R,"25,52667",12
404,Enedis,2018,E,010330201,11 RUE RACINE,BELLEGARDE-SUR-VALSERINE,R,"43,66791",27
405,Enedis,2018,E,010330201,265 RUE ANTOINE FAVRE,BELLEGARDE-SUR-VALSERINE,R,"22,45312",13
406,Enedis,2018,E,010330201,7 RUE DE TURENNE,BELLEGARDE-SUR-VALSERINE,R,"32,62681",17
407,Enedis,2018,E,010330201,205 ROUTE DE VOUVRAY,BELLEGARDE-SUR-VALSERINE,R,"26,79338",10
408,Enedis,2018,E,010330201,48 RUE BUFFON,BELLEGARDE-SUR-VALSERINE,R,"42,86847",12
409,Enedis,2018,E,010330201,285 RUE ANTOINE FAVRE,BELLEGARDE-SUR-VALSERINE,R,"13,28855",12
410,Enedis,2018,E,010330201,1 RUE HOCHE,BELLEGARDE-SUR-VALSERINE,R,"79,04762",15
411,Enedis,2018,E,010330201,10 RUE DE RICHEMONT,BELLEGARDE-SUR-VALSERINE,R,"21,56377",13
412,Enedis,2018,E,010330201,157 ROUTE DE VOUVRAY,BELLEGARDE-SUR-VALSERINE,R,"22,33272",11
413,Enedis,2018,E,010330201,2 AVENUE SAINT EXUPERY,BELLEGARDE-SUR-VALSERINE,R,"93,30868",19
414,Enedis,2018,E,010330201,5 RUE DE TURENNE,BELLEGARDE-SUR-VALSERINE,R,"22,08742",11
415,Enedis,2018,E,010330201,3 ALLEE DES MESANGES,BELLEGARDE-SUR-VALSERINE,R,"42,33086",10
416,Enedis,2018,E,010330201,392 ROUTE DE VOUVRAY,BELLEGARDE-SUR-VALSERINE,R,"264,52358",40
417,Enedis,2018,E,010330201,1 AVENUE MAL DE LATTRE DE TASSIGNY,BELLEGARDE-SUR-VALSERINE,T,"92,28857",1
418,Enedis,2018,E,010330201,52 AVENUE SAINT EXUPERY,BELLEGARDE-SUR-VALSERINE,T,"47,07671",1
419,Enedis,2018,E,010330201,21 RUE DE MUSINENS,BELLEGARDE-SUR-VALSERINE,T,"172,20817",1
420,Enedis,2018,E,010330201,47 RUE DE MUSINENS,BELLEGARDE-SUR-VALSERINE,T,"264,48678",1
421,Enedis,2018,E,010330201,49 B AVENUE SAINT EXUPERY,BELLEGARDE-SUR-VALSERINE,T,"15,67089",1
422,Enedis,2018,E,010330201,5 ALLEE DES MESANGES,BELLEGARDE-SUR-VALSERINE,T,"204,18217",1
423,Enedis,2018,E,010330201,7 AVENUE MAL DE LATTRE DE TASSIGNY,BELLEGARDE-SUR-VALSERINE,T,"158,95217",1
424,Enedis,2018,E,010330201,738 RUE DES JONQUILLES,BELLEGARDE-SUR-VALSERINE,T,"24,69724",1
425,Enedis,2018,E,010330201,10 AVENUE PAUL LANGEVIN,BELLEGARDE-SUR-VALSERINE,T,"134,09201",1
426,Enedis,2018,E,010330202,41 RUE BUFFON,BELLEGARDE-SUR-VALSERINE,R,"14,83242",12
427,Enedis,2018,E,010330202,1 ALLEE ALBERT CAMUS,BELLEGARDE-SUR-VALSERINE,R,"63,98987",12
428,Enedis,2018,E,010330202,2 RUE DE RICHEMONT,BELLEGARDE-SUR-VALSERINE,R,"19,00123",10
429,Enedis,2018,E,010330202,35 RUE BUFFON,BELLEGARDE-SUR-VALSERINE,R,"30,44224",22
430,Enedis,2018,E,010330202,5 ALLEE ALBERT CAMUS,BELLEGARDE-SUR-VALSERINE,R,"54,82695",11
431,Enedis,2018,E,010330202,12 RUE MARIUS PINARD,BELLEGARDE-SUR-VALSERINE,R,"15,06061",14
432,Enedis,2018,E,010330202,12 RUE DE RICHEMONT,BELLEGARDE-SUR-VALSERINE,R,"17,01375",12
433,Enedis,2018,E,010330202,11 RUE I ET FREDERIC JOLIOT CURIE,BELLEGARDE-SUR-VALSERINE,R,"31,22006",10
434,Enedis,2018,E,010330202,949 RUE DE MUSINENS,BELLEGARDE-SUR-VALSERINE,R,"30,88932",17
435,Enedis,2018,E,010330202,7 RUE I ET FREDERIC JOLIOT CURIE,BELLEGARDE-SUR-VALSERINE,R,"35,27308",10
436,Enedis,2018,E,010330202,5 RUE DU 19 MARS 1962,BELLEGARDE-SUR-VALSERINE,R,"17,3183",11
437,Enedis,2018,E,010330202,45 RUE BUFFON,BELLEGARDE-SUR-VALSERINE,R,"23,61026",15
438,Enedis,2018,E,010330202,4 RUE VICTOR HUGO,BELLEGARDE-SUR-VALSERINE,R,"31,68433",19
439,Enedis,2018,E,010330202,18 RUE DE RICHEMONT,BELLEGARDE-SUR-VALSERINE,R,"14,99115",11
440,Enedis,2018,E,010330202,39 RUE BUFFON,BELLEGARDE-SUR-VALSERINE,R,"16,20667",12
441,Enedis,2018,E,010330202,2 RUE VICTOR HUGO,BELLEGARDE-SUR-VALSERINE,R,"45,9706",30
442,Enedis,2018,E,010330202,171 RUE CHARLES MONVAL,BELLEGARDE-SUR-VALSERINE,R,"18,043",16
443,Enedis,2018,E,010330202,57 RUE BUFFON,BELLEGARDE-SUR-VALSERINE,R,"15,96162",10
444,Enedis,2018,E,010330202,119 RUE DE LA PINEDE,BELLEGARDE-SUR-VALSERINE,R,"170,1391",34
445,Enedis,2018,E,010330202,4 RUE DE RICHEMONT,BELLEGARDE-SUR-VALSERINE,R,"15,96484",10
446,Enedis,2018,E,010330202,22 RUE I ET FREDERIC JOLIOT CURIE,BELLEGARDE-SUR-VALSERINE,R,"54,86491",30
447,Enedis,2018,E,010330202,17 AVENUE MARECHAL LECLERC,BELLEGARDE-SUR-VALSERINE,R,"16,9531",14
448,Enedis,2018,E,010330202,2 ALLEE ALBERT CAMUS,BELLEGARDE-SUR-VALSERINE,R,"125,33052",20
449,Enedis,2018,E,010330202,55 RUE BUFFON,BELLEGARDE-SUR-VALSERINE,R,"14,13281",10
450,Enedis,2018,E,010330202,9 RUE I ET FREDERIC JOLIOT CURIE,BELLEGARDE-SUR-VALSERINE,R,"38,44688",11
451,Enedis,2018,E,010330202,52 RUE ANTOINE JACQUET,BELLEGARDE-SUR-VALSERINE,R,"49,74892",16
452,Enedis,2018,E,010330202,6 RUE MARIUS PINARD,BELLEGARDE-SUR-VALSERINE,R,"28,82249",14
453,Enedis,2018,E,010330202,3 ALLEE ALBERT CAMUS,BELLEGARDE-SUR-VALSERINE,R,"57,00865",11
454,Enedis,2018,E,010330202,4 ALLEE DES VERNES,BELLEGARDE-SUR-VALSERINE,R,"177,23088",17
455,Enedis,2018,E,010330202,8 RUE MARIUS PINARD,BELLEGARDE-SUR-VALSERINE,R,"33,35767",18
456,Enedis,2018,E,010330202,43 RUE BUFFON,BELLEGARDE-SUR-VALSERINE,R,"23,15054",15
457,Enedis,2018,E,010330202,14 RUE I ET FREDERIC JOLIOT CURIE,BELLEGARDE-SUR-VALSERINE,R,"27,97777",17
458,Enedis,2018,E,010330202,8 RUE DU 19 MARS 1962,BELLEGARDE-SUR-VALSERINE,R,"41,62727",26
459,Enedis,2018,E,010330202,16 RUE RACINE,BELLEGARDE-SUR-VALSERINE,R,"78,73966",13
460,Enedis,2018,E,010330202,4 RUE MOLIERE,BELLEGARDE-SUR-VALSERINE,R,"58,98392",28
461,Enedis,2018,E,010330202,23 RUE BUFFON,BELLEGARDE-SUR-VALSERINE,R,"24,57943",11
462,Enedis,2018,E,010330202,25 RUE BUFFON,BELLEGARDE-SUR-VALSERINE,R,"18,59589",12
463,Enedis,2018,E,010330202,7 RUE DU 19 MARS 1962,BELLEGARDE-SUR-VALSERINE,R,"59,0578",30
464,Enedis,2018,E,010330202,5 AVENUE MARECHAL LECLERC,BELLEGARDE-SUR-VALSERINE,R,"19,27438",14
465,Enedis,2018,E,010330202,1 PLACE DU SORGIA,BELLEGARDE-SUR-VALSERINE,R,"26,19988",13
466,Enedis,2018,E,010330202,54 RUE ANTOINE JACQUET,BELLEGARDE-SUR-VALSERINE,R,"48,76251",15
467,Enedis,2018,E,010330202,6 ALLEE ROGER VAILLANT,BELLEGARDE-SUR-VALSERINE,R,"64,25065",15
468,Enedis,2018,E,010330202,3 RUE DU 19 MARS 1962,BELLEGARDE-SUR-VALSERINE,R,"15,50624",13
469,Enedis,2018,E,010330202,12 RUE I ET FREDERIC JOLIOT CURIE,BELLEGARDE-SUR-VALSERINE,T,"41,97956",1
470,Enedis,2018,E,010330202,62 AVENUE SAINT EXUPERY,BELLEGARDE-SUR-VALSERINE,T,"90,94512",1
471,Enedis,2018,E,010330202,6 ALLEE ROGER VAILLANT,BELLEGARDE-SUR-VALSERINE,T,"175,07465",1
472,Enedis,2018,E,010330202,15 AVENUE SAINT EXUPERY,BELLEGARDE-SUR-VALSERINE,T,"867,13983",1
473,Enedis,2018,E,010330202,7 RUE I ET FREDERIC JOLIOT CURIE,BELLEGARDE-SUR-VALSERINE,T,"258,27117",1
474,Enedis,2018,E,010330301,6 RUE LOUIS ARMAND,BELLEGARDE-SUR-VALSERINE,I,"460,18585",1
475,Enedis,2018,E,010330301,42 RUE DE L INDUSTRIE,BELLEGARDE-SUR-VALSERINE,I,"4792,16567",1
476,Enedis,2018,E,010330301,7 RUE DES JARDINS,BELLEGARDE-SUR-VALSERINE,R,"35,54601",15
477,Enedis,2018,E,010330301,25 RUE DE L ETOILE,BELLEGARDE-SUR-VALSERINE,R,"33,31523",14
478,Enedis,2018,E,010330301,484 RUE CENTRALE,BELLEGARDE-SUR-VALSERINE,R,"156,19832",28
479,Enedis,2018,E,010330301,1 ROUTE DE BILLIAT,BELLEGARDE-SUR-VALSERINE,R,"68,93351",16
480,Enedis,2018,E,010330301,314 RUE CENTRALE,BELLEGARDE-SUR-VALSERINE,R,"20,08541",11
481,Enedis,2018,E,010330301,21 RUE DE L ETOILE,BELLEGARDE-SUR-VALSERINE,R,"37,02642",10
482,Enedis,2018,E,010330301,9 RUE DES JARDINS,BELLEGARDE-SUR-VALSERINE,R,"24,60583",15
483,Enedis,2018,E,010330301,330 RUE CENTRALE,BELLEGARDE-SUR-VALSERINE,R,"18,0164",12
484,Enedis,2018,E,010330301,370 RUE CENTRALE,BELLEGARDE-SUR-VALSERINE,R,"14,79607",12
485,Enedis,2018,E,010330301,27 RUE DE L ETOILE,BELLEGARDE-SUR-VALSERINE,R,"35,9621",15
486,Enedis,2018,E,010330301,27 RUE DE L INDUSTRIE,BELLEGARDE-SUR-VALSERINE,T,"266,10783",1
487,Enedis,2018,E,010340101,6 RUE OZEREAU,BELLEY,I,"78,94522",1
488,Enedis,2018,E,010340101,150 B RUE DE LA REPUBLIQUE,BELLEY,R,"23,96775",15
489,Enedis,2018,E,010340101,99 RUE DE L AMITIE,BELLEY,R,"83,82268",14
490,Enedis,2018,E,010340101,284 ROUTE DE BRENS,BELLEY,R,"143,28179",10
491,Enedis,2018,E,010340101,664 ROUTE D ARBIGNIEU,BELLEY,R,"95,26626",10
492,Enedis,2018,E,010340101,46 RUE MAURICE PONTE,BELLEY,R,"33,88344",24
493,Enedis,2018,E,010340101,150 A RUE DE LA REPUBLIQUE,BELLEY,R,"22,07213",15
494,Enedis,2018,E,010340101,30 RUE SAINT MARTIN,BELLEY,R,"20,51704",10
495,Enedis,2018,E,010340101,150 C RUE DE LA REPUBLIQUE,BELLEY,R,"23,81626",13
496,Enedis,2018,E,010340101,131 RUE SAINT MARTIN,BELLEY,R,"50,52541",16
497,Enedis,2018,E,010340101,19 RUE SAINT MARTIN,BELLEY,R,"48,46916",10
498,Enedis,2018,E,010340101,262 RUE DE MORTIER,BELLEY,R,"167,01567",42
499,Enedis,2018,E,010340101,11 RUE MANTE,BELLEY,R,"62,90527",23
500,Enedis,2018,E,010340101,216 AVENUE HOFF,BELLEY,T,"48,79147",1
501,Enedis,2018,E,010340101,10 RUE DE LA REPUBLIQUE,BELLEY,T,"133,19953",1
502,Enedis,2018,E,010340101,11 RUE MANTE,BELLEY,T,"271,76313",1
503,Enedis,2018,E,010340101,41 RUE GEORGES GIRERD,BELLEY,T,"189,50296",1
504,Enedis,2018,E,010340101,90 RUE DE LA REPUBLIQUE,BELLEY,T,"47,02628",1
505,Enedis,2018,E,010340101,60 AVENUE PAUL CHASTEL,BELLEY,T,"153,49067",1
506,Enedis,2018,E,010340102,694 AVENUE CHARLES DE GAULLE,BELLEY,I,"137,40964",1
507,Enedis,2018,E,010340102,4 GRANDE RUE,BELLEY,I,"95,33967",1
508,Enedis,2018,E,010340102,44 RUE SAINTE MARIE,BELLEY,I,"40,58458",1
509,Enedis,2018,E,010340102,450 AVENUE CHARLES DE GAULLE,BELLEY,I,"183,54332",2
510,Enedis,2018,E,010340102,1 RUE SAINT JEAN,BELLEY,R,"12,18688",10
511,Enedis,2018,E,010340102,85 AVENUE LIVET,BELLEY,R,"82,86099",12
512,Enedis,2018,E,010340102,32 GRANDE RUE,BELLEY,R,"43,51696",10
513,Enedis,2018,E,010340102,25 AVENUE LIVET,BELLEY,R,"16,51771",16
514,Enedis,2018,E,010340102,3 RUE SAINTE MARIE,BELLEY,R,"88,10399",38
515,Enedis,2018,E,010340102,11 RUE DU CHAPITRE,BELLEY,R,"62,71959",28
516,Enedis,2018,E,010340102,7 AVENUE BRILLAT SAVARIN,BELLEY,R,"64,64911",32
517,Enedis,2018,E,010340102,386 CHEMIN DES SOUPIRS,BELLEY,R,"228,65148",34
518,Enedis,2018,E,010340102,1 PLACE DU PERE POPIELUSKO,BELLEY,R,"43,66561",17
519,Enedis,2018,E,010340102,11 BOULEVARD DE VERDUN,BELLEY,T,"82,32505",1
520,Enedis,2018,E,010340102,65 GRANDE RUE,BELLEY,T,"11,39886",1
521,Enedis,2018,E,010340102,22 BOULEVARD DU MAIL,BELLEY,T,"75,18227",1
522,Enedis,2018,E,010340102,134 RUE SAINT MARTIN,BELLEY,T,"136,16955",1
523,Enedis,2018,E,010340103,30 AVENUE BRILLAT SAVARIN,BELLEY,I,"902,051",1
524,Enedis,2018,E,010340103,18 AVENUE BRILLAT SAVARIN,BELLEY,I,"13,29077",1
525,Enedis,2018,E,010340103,75 RUE DU 11E REGIMENT DE ZOUAVES,BELLEY,R,"13,25231",14
526,Enedis,2018,E,010340103,235 RUE DU 11E REGIMENT DE ZOUAVES,BELLEY,R,"46,35579",25
527,Enedis,2018,E,010340103,4 RUE DU MONTILLET,BELLEY,R,"11,38102",10
528,Enedis,2018,E,010340103,4 PLACE DES CATALPAS,BELLEY,R,"43,74951",10
529,Enedis,2018,E,010340103,106 AVENUE DU 8 MAI 1945,BELLEY,R,"30,55738",12
530,Enedis,2018,E,010340103,320 AVENUE DU 8 MAI 1945,BELLEY,R,"20,38413",10
531,Enedis,2018,E,010340103,174 AVENUE DU 8 MAI 1945,BELLEY,R,"35,59228",12
532,Enedis,2018,E,010340103,338 AVENUE DU 8 MAI 1945,BELLEY,R,"14,50208",10
533,Enedis,2018,E,010340103,293 RUE DU 11E REGIMENT DE ZOUAVES,BELLEY,R,"34,79219",23
534,Enedis,2018,E,010340103,131 AVENUE DU 8 MAI 1945,BELLEY,R,"45,27524",30
535,Enedis,2018,E,010340103,356 AVENUE DU 8 MAI 1945,BELLEY,R,"17,99855",10
536,Enedis,2018,E,010340103,345 RUE DU 11E REGIMENT DE ZOUAVES,BELLEY,R,"45,39715",26
537,Enedis,2018,E,010340103,198 AVENUE DU 8 MAI 1945,BELLEY,R,"58,78036",22
538,Enedis,2018,E,010340103,40 RUE BON REPOS,BELLEY,T,"130,02752",1
539,Enedis,2018,E,010380000,135 GRANDE RUE,BÉNY,R,"85,65467",17
540,RTE,2018,E,010380000,,BÉNY,T,"5304,291",1
541,Enedis,2018,E,010390000,2 RUE DE CLUSY,BÉON,T,"30,27107",1
542,Enedis,2018,E,010410000,500 RUE DE L ALBARINE,BETTANT,T,"33,78246",1
543,Enedis,2018,E,010430000,137 CHEMIN DU MOULIN QUENIN,BEYNOST,A,"116,22096",1
544,Enedis,2018,E,010430000,110 RUE DU CHAT BOTTE,BEYNOST,I,"33,99653",1
545,Enedis,2018,E,010430000,466 CHEMIN DU SERMORAZ,BEYNOST,I,"173,09932",1
546,Enedis,2018,E,010430000,77 ALLEE DES GRANDES COMBES,BEYNOST,I,"13486,4785",1
547,Enedis,2018,E,010430000,839 CHEMIN DES BATTERSES,BEYNOST,I,"215,02831",1
548,Enedis,2018,E,010430000,118 CHEMIN DU SERMORAZ,BEYNOST,I,"140,17568",1
549,Enedis,2018,E,010430000,620 RUE DES BARRONIERES,BEYNOST,I,"0,55454",1
550,Enedis,2018,E,010430000,1009 RUE CENTRALE,BEYNOST,R,"34,18154",11
551,Enedis,2018,E,010430000,1 ALLEE DU PROFESSEUR LACASSAGNE,BEYNOST,R,"22,0221",10
552,Enedis,2018,E,010430000,160 RUE DES ECOLES,BEYNOST,R,"24,28752",11
553,Enedis,2018,E,010430000,11 PLACE DU FORUM,BEYNOST,R,"37,7443",15
554,Enedis,2018,E,010430000,3 ALLEE DU PROFESSEUR LACASSAGNE,BEYNOST,R,"78,95832",15
555,Enedis,2018,E,010430000,10 ALLEE DU PROFESSEUR LACASSAGNE,BEYNOST,R,"64,2557",15
556,Enedis,2018,E,010430000,4 ALLEE DU PROFESSEUR LACASSAGNE,BEYNOST,R,"79,77862",15
557,Enedis,2018,E,010430000,6 PLACE DU FORUM,BEYNOST,R,"31,44307",14
558,Enedis,2018,E,010430000,180 RUE CENTRALE,BEYNOST,R,"60,5995",12
559,Enedis,2018,E,010430000,710 CHEMIN DE LA SEREINE,BEYNOST,R,"140,58558",13
560,Enedis,2018,E,010430000,415 RUE DU MIDI,BEYNOST,R,"15,02467",10
561,Enedis,2018,E,010430000,80 IMPASSE HENRI FARGE,BEYNOST,R,"62,81483",12
562,Enedis,2018,E,010430000,113 CHEMIN DU MONDEROUX,BEYNOST,R,"101,1026",10
563,Enedis,2018,E,010430000,90 IMPASSE HENRI FARGE,BEYNOST,R,"35,02451",16
564,Enedis,2018,E,010430000,180 RUE DES ECOLES,BEYNOST,R,"69,74832",11
565,Enedis,2018,E,010430000,510 RUE DES THERMES,BEYNOST,R,"68,67124",12
566,Enedis,2018,E,010430000,1390 RUE CENTRALE,BEYNOST,T,"97,385",1
567,Enedis,2018,E,010430000,520 RUE DES THERMES,BEYNOST,T,"76,74582",1
568,Enedis,2018,E,010430000,74 ALLEE DES GRANDES COMBES,BEYNOST,T,"43,34165",1
569,Enedis,2018,E,010430000,2102 ROUTE DE GENEVE,BEYNOST,T,"45,98181",1
570,Enedis,2018,E,010430000,108 IMPASSE DU PRE ROSEAU,BEYNOST,T,"17,11935",1
571,Enedis,2018,E,010430000,466 CHEMIN DU SERMORAZ,BEYNOST,T,"51,89584",1
572,Enedis,2018,E,010430000,75 CHEMIN DE GRANGE DEBOUT,BEYNOST,T,"37,69149",1
573,Enedis,2018,E,010440000,2 ROUTE DE SEYSSEL,BILLIAT,T,"58,15392",1
574,Enedis,2018,E,010470000,100 ALLEE DES ERABLES,BLYES,I,"13,4909",2
575,Enedis,2018,E,010470000,393 ROUTE DE LOYETTES,BLYES,R,"353,3277",24
576,Enedis,2018,E,010470000,680 ALLEE DES COMBES,BLYES,T,"79,08002",1
577,Enedis,2018,E,010470000,65 ALLEE DES COMBES,BLYES,T,"30,45776",1
578,Enedis,2018,E,010470000,385 ALLEE DES COMBES,BLYES,T,"8,30537",1
579,Enedis,2018,E,010470000,95 ALLEE DES ERABLES,BLYES,T,"25,50115",1
580,Enedis,2018,E,010490000,833 ROUTE NATIONALE,LA BOISSE,I,"114,51271",1
581,Enedis,2018,E,010490000,334 RUE DE PRE MAYEUX,LA BOISSE,R,"114,42862",18
582,Enedis,2018,E,010490000,310 CHEMIN DU CALICE,LA BOISSE,R,"230,07482",19
583,Enedis,2018,E,010490000,1526 ROUTE NATIONALE,LA BOISSE,R,"72,89949",13
584,Enedis,2018,E,010490000,424 RUE JOSEPH GUINET,LA BOISSE,R,"85,15898",35
585,Enedis,2018,E,010490000,105 RUE DES ECOLES,LA BOISSE,R,"21,68371",13
586,Enedis,2018,E,010490000,234 CHEMIN DE LA BATONNE,LA BOISSE,R,"35,90429",20
587,Enedis,2018,E,010490000,196 IMPASSE DE RACLET,LA BOISSE,R,"13,1405",12
588,Enedis,2018,E,010490000,93 ROUTE NATIONALE,LA BOISSE,R,"42,12976",18
589,Enedis,2018,E,010490000,173 IMPASSE DU PETIT CASSET,LA BOISSE,R,"151,47759",18
590,Enedis,2018,E,010490000,1 IMPASSE DES FEUILLATES,LA BOISSE,R,"35,45282",14
591,Enedis,2018,E,010490000,2074 ROUTE NATIONALE,LA BOISSE,R,"104,62545",12
592,Enedis,2018,E,010490000,144 IMPASSE DE RACLET,LA BOISSE,R,"93,75306",14
593,Enedis,2018,E,010490000,1664 ROUTE NATIONALE,LA BOISSE,R,"91,17056",14
594,Enedis,2018,E,010490000,228 RUE DE PRE MAYEUX,LA BOISSE,R,"121,01544",13
595,Enedis,2018,E,010490000,2 IMPASSE DES FEUILLATES,LA BOISSE,R,"24,49678",10
596,Enedis,2018,E,010490000,362 CHEMIN DU CALICE,LA BOISSE,R,"104,25095",12
597,Enedis,2018,E,010490000,1107 CHEMIN HENRI IV,LA BOISSE,R,"197,93113",12
598,Enedis,2018,E,010490000,25 AVENUE DES PRES SEIGNEURS,LA BOISSE,T,"32,09809",1
599,Enedis,2018,E,010490000,270 CHEMIN DU GRAND CASSET,LA BOISSE,T,"376,6175",1
600,Enedis,2018,E,010490000,130 AVENUE DES PRES SEIGNEURS,LA BOISSE,T,"450,01333",1
601,Enedis,2018,E,010490000,475 AVENUE DES PRES SEIGNEURS,LA BOISSE,T,"153,83563",1
602,Enedis,2018,E,010490000,300 AVENUE DES PRES SEIGNEURS,LA BOISSE,T,"709,16267",1
603,RTE,2018,E,010510000,ROUTE DE L' USINE,BOLOZON,T,"7012,563",1
604,Enedis,2018,E,010530101,18 BOULEVARD DE BROU,BOURG-EN-BRESSE,I,"34,91361",1
605,Enedis,2018,E,010530101,1 RUE RENE CASSIN,BOURG-EN-BRESSE,I,"130,85167",1
606,Enedis,2018,E,010530101,14 RUE PAUL PIODA,BOURG-EN-BRESSE,I,"74,87878",1
607,Enedis,2018,E,010530101,23 RUE DU 4 SEPTEMBRE,BOURG-EN-BRESSE,I,"43,0986",1
608,Enedis,2018,E,010530101,17 RUE DES BONS ENFANTS,BOURG-EN-BRESSE,R,"40,87874",11
609,Enedis,2018,E,010530101,50 PASSAGE DES CORDELIERS,BOURG-EN-BRESSE,R,"17,78429",14
610,Enedis,2018,E,010530101,4 RUE DOCTEUR BOUVERET,BOURG-EN-BRESSE,R,"25,05493",10
611,Enedis,2018,E,010530101,4 PLACE DES LICES,BOURG-EN-BRESSE,R,"42,95189",27
612,Enedis,2018,E,010530101,9 RUE D ESPAGNE,BOURG-EN-BRESSE,R,"72,37438",13
613,Enedis,2018,E,010530101,23 RUE DU 4 SEPTEMBRE,BOURG-EN-BRESSE,R,"192,48755",90
614,Enedis,2018,E,010530101,20 CRS DE VERDUN,BOURG-EN-BRESSE,R,"31,03192",11
615,Enedis,2018,E,010530101,1 RUE GUICHARD,BOURG-EN-BRESSE,R,"52,17356",15
616,Enedis,2018,E,010530101,22 RUE DES FONTANETTES,BOURG-EN-BRESSE,R,"34,88718",21
617,Enedis,2018,E,010530101,61 PASSAGE DES CORDELIERS,BOURG-EN-BRESSE,R,"5,91192",10
618,Enedis,2018,E,010530101,6 RUE DU PALAIS,BOURG-EN-BRESSE,R,"44,7739",21
619,Enedis,2018,E,010530101,8 RUE PASTEUR,BOURG-EN-BRESSE,R,"20,15722",11
620,Enedis,2018,E,010530101,24 RUE DES FONTANETTES,BOURG-EN-BRESSE,R,"35,04201",26
621,Enedis,2018,E,010530101,25 RUE DU 4 SEPTEMBRE,BOURG-EN-BRESSE,R,"13,56662",15
622,Enedis,2018,E,010530101,1 RUE GENERAL DEBENEY,BOURG-EN-BRESSE,R,"31,66872",21
623,Enedis,2018,E,010530101,7 RUE THOMAS RIBOUD,BOURG-EN-BRESSE,R,"22,12255",11
624,Enedis,2018,E,010530101,12 RUE EDGAR QUINET,BOURG-EN-BRESSE,R,"15,41126",10
625,Enedis,2018,E,010530101,2 RUE DOCTEUR BOUVERET,BOURG-EN-BRESSE,R,"28,0946",11
626,Enedis,2018,E,010530101,9 RUE EDGAR QUINET,BOURG-EN-BRESSE,R,"52,31052",10
627,Enedis,2018,E,010530101,26 RUE DES BONS ENFANTS,BOURG-EN-BRESSE,R,"20,41208",10
628,Enedis,2018,E,010530101,6 RUE EDGAR QUINET,BOURG-EN-BRESSE,R,"18,1847",10
629,Enedis,2018,E,010530101,9 RUE CHARLES ROBIN,BOURG-EN-BRESSE,T,"81,49554",1
630,Enedis,2018,E,010530101,19 PLACE BERNARD,BOURG-EN-BRESSE,T,"327,73881",2
631,Enedis,2018,E,010530101,18 RUE MARECHAL FOCH,BOURG-EN-BRESSE,T,"47,1866",1
632,Enedis,2018,E,010530101,1 ALLEE DES BROTTEAUX,BOURG-EN-BRESSE,T,"42,23667",1
633,Enedis,2018,E,010530101,32 CRS DE VERDUN,BOURG-EN-BRESSE,T,"82,37452",1
634,Enedis,2018,E,010530101,5 CRS DE VERDUN,BOURG-EN-BRESSE,T,"74,41835",1
635,Enedis,2018,E,010530101,1 RUE PAUL PIODA,BOURG-EN-BRESSE,T,"158,72157",1
636,Enedis,2018,E,010530101,30 RUE MARECHAL FOCH,BOURG-EN-BRESSE,T,"37,5798",1
637,Enedis,2018,E,010530101,24 RUE BICHAT,BOURG-EN-BRESSE,T,"81,92808",1
638,Enedis,2018,E,010530101,3 RUE PAUL PIODA,BOURG-EN-BRESSE,T,"53,65786",1
639,Enedis,2018,E,010530101,3 RUE GUICHENON,BOURG-EN-BRESSE,T,"310,26789",1
640,Enedis,2018,E,010530101,2 AVENUE DU CHAMP DE FOIRE,BOURG-EN-BRESSE,T,"84,00884",1
641,Enedis,2018,E,010530101,15 RUE DE L ETOILE,BOURG-EN-BRESSE,T,"46,01893",1
642,Enedis,2018,E,010530101,15 RUE PAUL PIODA,BOURG-EN-BRESSE,T,"50,05689",1
643,Enedis,2018,E,010530101,10 CRS DE VERDUN,BOURG-EN-BRESSE,T,"119,23987",1
644,Enedis,2018,E,010530101,5 RUE RENE CASSIN,BOURG-EN-BRESSE,T,"56,44634",1
645,Enedis,2018,E,010530101,5 RUE MARECHAL FOCH,BOURG-EN-BRESSE,T,"53,9943",1
646,Enedis,2018,E,010530101,2 AVENUE DES BELGES,BOURG-EN-BRESSE,T,"168,27089",1
647,Enedis,2018,E,010530101,17 RUE NOTRE DAME,BOURG-EN-BRESSE,T,"107,73265",1
648,Enedis,2018,E,010530101,12 PLACE NEUVE,BOURG-EN-BRESSE,T,"72,05779",1
649,Enedis,2018,E,010530101,13 RUE NOTRE DAME,BOURG-EN-BRESSE,T,"37,53095",1
650,Enedis,2018,E,010530101,27 RUE DES BONS ENFANTS,BOURG-EN-BRESSE,T,"70,07868",1
651,Enedis,2018,E,010530101,22 RUE MARECHAL FOCH,BOURG-EN-BRESSE,T,"26,6255",1
652,Enedis,2018,E,010530101,4 RUE GAMBETTA,BOURG-EN-BRESSE,T,"43,21446",1
653,Enedis,2018,E,010530101,7 AVENUE ALSACE LORRAINE,BOURG-EN-BRESSE,T,"164,82403",1
654,Enedis,2018,E,010530101,33 RUE SAMARITAINE,BOURG-EN-BRESSE,T,"178,33537",1
655,Enedis,2018,E,010530102,9 RUE DU PRESSOIR,BOURG-EN-BRESSE,I,"58,25766",1
656,Enedis,2018,E,010530102,25 AVENUE MAGINOT,BOURG-EN-BRESSE,I,"122,83525",1
657,Enedis,2018,E,010530102,12 RUE CREVE COEUR,BOURG-EN-BRESSE,R,"26,5611",12
658,Enedis,2018,E,010530102,3 T AVENUE DES SPORTS,BOURG-EN-BRESSE,R,"32,77178",20
659,Enedis,2018,E,010530102,23 BOULEVARD DE BROU,BOURG-EN-BRESSE,R,"33,79223",14
660,Enedis,2018,E,010530102,8 RUE CREVE COEUR,BOURG-EN-BRESSE,R,"34,41425",15
661,Enedis,2018,E,010530102,6 ALLEE DU PARC SAINT NICOLAS,BOURG-EN-BRESSE,R,"33,24327",12
662,Enedis,2018,E,010530102,41 B BOULEVARD DE BROU,BOURG-EN-BRESSE,R,"48,01818",19
663,Enedis,2018,E,010530102,20 RUE XAVIER PRIVAS,BOURG-EN-BRESSE,R,"56,24779",10
664,Enedis,2018,E,010530102,9 T QUAI HENRI GROBOZ,BOURG-EN-BRESSE,R,"178,54314",49
665,Enedis,2018,E,010530102,9 C RUE CREVE COEUR,BOURG-EN-BRESSE,R,"17,68759",11
666,Enedis,2018,E,010530102,35 AVENUE MAGINOT,BOURG-EN-BRESSE,R,"31,10734",16
667,Enedis,2018,E,010530102,28 RUE CHARLES ROBIN,BOURG-EN-BRESSE,R,"35,38021",10
668,Enedis,2018,E,010530102,2 ALLEE DU PARC SAINT NICOLAS,BOURG-EN-BRESSE,R,"25,79992",11
669,Enedis,2018,E,010530102,4 ALLEE DU PARC SAINT NICOLAS,BOURG-EN-BRESSE,R,"34,09885",10
670,Enedis,2018,E,010530102,6 RUE DE L ECOLE,BOURG-EN-BRESSE,R,"58,04172",15
671,Enedis,2018,E,010530102,25 RUE XAVIER PRIVAS,BOURG-EN-BRESSE,R,"52,99322",18
672,Enedis,2018,E,010530102,3 BOULEVARD SAINT NICOLAS,BOURG-EN-BRESSE,R,"105,72927",41
673,Enedis,2018,E,010530102,41 BOULEVARD DE BROU,BOURG-EN-BRESSE,R,"72,67047",32
674,Enedis,2018,E,010530102,2 RUE DE L ECOLE,BOURG-EN-BRESSE,R,"57,40849",15
675,Enedis,2018,E,010530102,17 RUE ALBERT 1ER,BOURG-EN-BRESSE,R,"64,33029",14
676,Enedis,2018,E,010530102,9 B RUE CREVE COEUR,BOURG-EN-BRESSE,R,"23,20534",11
677,Enedis,2018,E,010530102,41 T BOULEVARD DE BROU,BOURG-EN-BRESSE,R,"87,67842",35
678,Enedis,2018,E,010530102,12 RUE DE LA GRENOUILLERE,BOURG-EN-BRESSE,R,"21,25947",10
679,Enedis,2018,E,010530102,24 RUE CHARLES ROBIN,BOURG-EN-BRESSE,R,"17,99817",10
680,Enedis,2018,E,010530102,6 RUE OCTAVE MOREL,BOURG-EN-BRESSE,R,"28,81036",11
681,Enedis,2018,E,010530102,8 ALLEE DU PARC SAINT NICOLAS,BOURG-EN-BRESSE,R,"23,43443",10
682,Enedis,2018,E,010530102,2 RUE PAVE D AMOUR,BOURG-EN-BRESSE,R,"45,60635",33
683,Enedis,2018,E,010530102,17 BOULEVARD SAINT NICOLAS,BOURG-EN-BRESSE,R,"26,57488",19
684,Enedis,2018,E,010530102,2 RUE DE LA GRENOUILLERE,BOURG-EN-BRESSE,R,"40,20626",15
685,Enedis,2018,E,010530102,36 B RUE CHARLES ROBIN,BOURG-EN-BRESSE,R,"61,44587",27
686,Enedis,2018,E,010530102,17 BOULEVARD DE BROU,BOURG-EN-BRESSE,R,"100,4858",21
687,Enedis,2018,E,010530102,10 RUE CREVE COEUR,BOURG-EN-BRESSE,R,"36,29764",14
688,Enedis,2018,E,010530102,14 RUE CREVE COEUR,BOURG-EN-BRESSE,R,"23,07344",12
689,Enedis,2018,E,010530102,4 RUE DE LA GRENOUILLERE,BOURG-EN-BRESSE,R,"13,97539",10
690,Enedis,2018,E,010530102,41 C BOULEVARD DE BROU,BOURG-EN-BRESSE,R,"11,7766",12
691,Enedis,2018,E,010530102,6 RUE CREVE COEUR,BOURG-EN-BRESSE,R,"35,90362",16
692,Enedis,2018,E,010530102,22 RUE XAVIER PRIVAS,BOURG-EN-BRESSE,R,"89,4621",11
693,Enedis,2018,E,010530102,3 AVENUE DES SPORTS,BOURG-EN-BRESSE,R,"35,29634",12
694,Enedis,2018,E,010530102,22 RUE ALBERT 1ER,BOURG-EN-BRESSE,R,"48,36093",15
695,Enedis,2018,E,010530102,21 RUE ALBERT 1ER,BOURG-EN-BRESSE,R,"29,20247",29
696,Enedis,2018,E,010530102,10 ALLEE DU PARC SAINT NICOLAS,BOURG-EN-BRESSE,R,"26,84396",12
697,Enedis,2018,E,010530102,5 B AVENUE DES SPORTS,BOURG-EN-BRESSE,R,"24,07276",16
698,Enedis,2018,E,010530102,11 RUE DU PRESSOIR,BOURG-EN-BRESSE,R,"32,65233",10
699,Enedis,2018,E,010530102,7 BOULEVARD DE BROU,BOURG-EN-BRESSE,T,"135,50649",1
700,Enedis,2018,E,010530102,7 RUE DE LA GRENOUILLERE,BOURG-EN-BRESSE,T,"337,38217",1
701,Enedis,2018,E,010530102,14 PLACE CARRIAT,BOURG-EN-BRESSE,T,"72,90232",1
702,Enedis,2018,E,010530102,5 T AVENUE DES SPORTS,BOURG-EN-BRESSE,T,"34,08037",1
703,Enedis,2018,E,010530102,10 RUE PAVE D AMOUR,BOURG-EN-BRESSE,T,"194,72161",2
704,Enedis,2018,E,010530102,14 RUE DE L ECOLE,BOURG-EN-BRESSE,T,"81,77742",1
705,Enedis,2018,E,010530102,12 RUE GABRIEL VICAIRE,BOURG-EN-BRESSE,T,"36,78923",1
706,Enedis,2018,E,010530102,12 RUE PAVE D AMOUR,BOURG-EN-BRESSE,T,"195,09495",1
707,Enedis,2018,E,010530102,37 AVENUE MAGINOT,BOURG-EN-BRESSE,T,"67,03283",1
708,Enedis,2018,E,010530102,8 RUE GABRIEL VICAIRE,BOURG-EN-BRESSE,T,"14,22281",1
709,Enedis,2018,E,010530102,14 RUE PAVE D AMOUR,BOURG-EN-BRESSE,T,"7,54847",1
710,Enedis,2018,E,010530102,3 AVENUE DES BELGES,BOURG-EN-BRESSE,T,"107,05425",1
711,Enedis,2018,E,010530102,21 QUAI HENRI GROBOZ,BOURG-EN-BRESSE,T,"97,23216",1
712,Enedis,2018,E,010530102,15 AVENUE DU CHAMP DE FOIRE,BOURG-EN-BRESSE,T,"500,38274",1
713,Enedis,2018,E,010530102,17 AVENUE MAGINOT,BOURG-EN-BRESSE,T,"119,83871",1
714,Enedis,2018,E,010530102,34 AVENUE DES BELGES,BOURG-EN-BRESSE,T,"58,64083",1
715,Enedis,2018,E,010530102,42 RUE CHARLES ROBIN,BOURG-EN-BRESSE,T,"78,86672",1
716,Enedis,2018,E,010530102,15 BOULEVARD DE BROU,BOURG-EN-BRESSE,T,"35,4461",1
717,Enedis,2018,E,010530102,41 BOULEVARD DE BROU,BOURG-EN-BRESSE,T,"119,88696",1
718,Enedis,2018,E,010530102,12 RUE DE LA GRENOUILLERE,BOURG-EN-BRESSE,T,"70,83866",1
719,Enedis,2018,E,010530102,1 ALLEE DES BROTTEAUX,BOURG-EN-BRESSE,T,"647,538",1
720,Enedis,2018,E,010530103,12 PLACE JOUBERT,BOURG-EN-BRESSE,I,"70,23138",1
721,Enedis,2018,E,010530103,41 RUE BOURGMAYER,BOURG-EN-BRESSE,I,"66,66375",1
722,Enedis,2018,E,010530103,2 RUE LALANDE,BOURG-EN-BRESSE,R,"57,44088",12
723,Enedis,2018,E,010530103,2 RUE CLAVAGRY,BOURG-EN-BRESSE,R,"52,7086",17
724,Enedis,2018,E,010530103,2 A RUE EMILIEN CABUCHET,BOURG-EN-BRESSE,R,"89,72884",15
725,Enedis,2018,E,010530103,36 RUE BOURGMAYER,BOURG-EN-BRESSE,R,"41,27367",14
726,Enedis,2018,E,010530103,66 BOULEVARD DE BROU,BOURG-EN-BRESSE,R,"47,45619",14
727,Enedis,2018,E,010530103,58 BOULEVARD DE BROU,BOURG-EN-BRESSE,R,"23,88887",14
728,Enedis,2018,E,010530103,6 AVENUE LOUIS JOURDAN,BOURG-EN-BRESSE,R,"23,09265",10
729,Enedis,2018,E,010530103,9 RUE TEYNIERE,BOURG-EN-BRESSE,R,"15,66164",14
730,Enedis,2018,E,010530103,20 RUE LITTRE,BOURG-EN-BRESSE,R,"36,63668",19
731,Enedis,2018,E,010530103,28 RUE BOURGMAYER,BOURG-EN-BRESSE,R,"26,13133",10
732,Enedis,2018,E,010530103,3 BOULEVARD DU MARECHAL LECLERC,BOURG-EN-BRESSE,R,"39,30265",15
733,Enedis,2018,E,010530103,53 RUE DE LA REPUBLIQUE,BOURG-EN-BRESSE,R,"20,81289",12
734,Enedis,2018,E,010530103,16 B RUE LALANDE,BOURG-EN-BRESSE,R,"23,20669",12
735,Enedis,2018,E,010530103,23 RUE GABRIEL VICAIRE,BOURG-EN-BRESSE,R,"139,16754",21
736,Enedis,2018,E,010530103,19 AVENUE ALSACE LORRAINE,BOURG-EN-BRESSE,R,"44,41965",11
737,Enedis,2018,E,010530103,3 RUE DES CASERNES,BOURG-EN-BRESSE,R,"193,93672",33
738,Enedis,2018,E,010530103,11 AVENUE ALPHONSE MUSCAT,BOURG-EN-BRESSE,R,"67,1673",25
739,Enedis,2018,E,010530103,45 AVENUE ALSACE LORRAINE,BOURG-EN-BRESSE,R,"29,44933",19
740,Enedis,2018,E,010530103,26 RUE LITTRE,BOURG-EN-BRESSE,R,"42,10555",10
741,Enedis,2018,E,010530103,8 AVENUE LOUIS JOURDAN,BOURG-EN-BRESSE,R,"80,73783",53
742,Enedis,2018,E,010530103,22 RUE DES CASERNES,BOURG-EN-BRESSE,R,"26,66739",13
743,Enedis,2018,E,010530103,56 BOULEVARD DE BROU,BOURG-EN-BRESSE,R,"27,265",15
744,Enedis,2018,E,010530103,5 RUE GUSTAVE DORE,BOURG-EN-BRESSE,R,"19,51832",12
745,Enedis,2018,E,010530103,4 RUE DES MARRONNIERS,BOURG-EN-BRESSE,R,"23,4318",11
746,Enedis,2018,E,010530103,57 RUE DE LA REPUBLIQUE,BOURG-EN-BRESSE,R,"12,5276",10
747,Enedis,2018,E,010530103,24 RUE DES CASERNES,BOURG-EN-BRESSE,R,"37,64817",15
748,Enedis,2018,E,010530103,20 RUE DOCTEUR EBRARD,BOURG-EN-BRESSE,R,"19,17782",11
749,Enedis,2018,E,010530103,6 PLACE JOUBERT,BOURG-EN-BRESSE,T,"75,34742",1
750,Enedis,2018,E,010530103,58 RUE BOURGMAYER,BOURG-EN-BRESSE,T,"376,53825",2
751,Enedis,2018,E,010530103,11 BOULEVARD DU MARECHAL LECLERC,BOURG-EN-BRESSE,T,"183,86147",1
752,Enedis,2018,E,010530103,10 AVENUE ALSACE LORRAINE,BOURG-EN-BRESSE,T,"1,70738",1
753,Enedis,2018,E,010530103,9 RUE JULES MIGONNEY,BOURG-EN-BRESSE,T,"37,41635",1
754,Enedis,2018,E,010530103,6 RUE CLAVAGRY,BOURG-EN-BRESSE,T,"84,48121",1
755,Enedis,2018,E,010530103,4 RUE DALLEMAGNE,BOURG-EN-BRESSE,T,"110,37792",1
756,Enedis,2018,E,010530103,10 BOULEVARD DU MARECHAL LECLERC,BOURG-EN-BRESSE,T,"45,76631",1
757,Enedis,2018,E,010530103,13 AVENUE ALSACE LORRAINE,BOURG-EN-BRESSE,T,"215,74515",1
758,Enedis,2018,E,010530103,9 RUE DES MARRONNIERS,BOURG-EN-BRESSE,T,"665,34333",1
759,Enedis,2018,E,010530103,2 B RUE GUSTAVE DORE,BOURG-EN-BRESSE,T,"30,70054",1
760,Enedis,2018,E,010530103,3 PLACE PIERRE GOUJON,BOURG-EN-BRESSE,T,"92,63747",1
761,Enedis,2018,E,010530103,5 RUE TEYNIERE,BOURG-EN-BRESSE,T,"40,53364",1
762,Enedis,2018,E,010530103,16 RUE DU LYCEE,BOURG-EN-BRESSE,T,"602,58383",1
763,Enedis,2018,E,010530103,45 AVENUE ALSACE LORRAINE,BOURG-EN-BRESSE,T,"628,10326",2
764,Enedis,2018,E,010530103,3 RUE DU LYCEE,BOURG-EN-BRESSE,T,"312,61363",1
765,Enedis,2018,E,010530103,7 AVENUE ALPHONSE MUSCAT,BOURG-EN-BRESSE,T,"26,22252",1
766,Enedis,2018,E,010530103,33 RUE BOURGMAYER,BOURG-EN-BRESSE,T,"91,80924",2
767,Enedis,2018,E,010530103,6 AVENUE ALSACE LORRAINE,BOURG-EN-BRESSE,T,"24,7172",1
768,Enedis,2018,E,010530103,1 RUE DU LYCEE,BOURG-EN-BRESSE,T,"35,36617",1
769,Enedis,2018,E,010530201,73 RUE PARDAILLAN,BOURG-EN-BRESSE,R,"52,51922",15
770,Enedis,2018,E,010530201,9 RUE DU 23E REGIMENT D INFANTERIE,BOURG-EN-BRESSE,R,"31,70222",21
771,Enedis,2018,E,010530201,53 RUE PARDAILLAN,BOURG-EN-BRESSE,R,"58,59364",19
772,Enedis,2018,E,010530201,6 B RUE DOCTEUR ROUX,BOURG-EN-BRESSE,R,"34,55575",40
773,Enedis,2018,E,010530201,12 RUE DOCTEUR ROUX,BOURG-EN-BRESSE,R,"11,57162",12
774,Enedis,2018,E,010530201,8 AVENUE DES ANCIENS COMBATTANTS,BOURG-EN-BRESSE,R,"15,44396",12
775,Enedis,2018,E,010530201,14 RUE DOCTEUR ROUX,BOURG-EN-BRESSE,R,"27,38865",11
776,Enedis,2018,E,010530201,5 RUE DU 23E REGIMENT D INFANTERIE,BOURG-EN-BRESSE,R,"61,558",24
777,Enedis,2018,E,010530201,49 AVENUE DE MACON,BOURG-EN-BRESSE,R,"56,81587",38
778,Enedis,2018,E,010530201,9 B RUE DE LA CITADELLE,BOURG-EN-BRESSE,R,"46,20532",16
779,Enedis,2018,E,010530201,26 BOULEVARD DU MARECHAL LECLERC,BOURG-EN-BRESSE,R,"45,21249",17
780,Enedis,2018,E,010530201,637 RUE DE LA CHAMBIERE,BOURG-EN-BRESSE,R,"29,33068",17
781,Enedis,2018,E,010530201,127 RUE PARDAILLAN,BOURG-EN-BRESSE,R,"64,56952",18
782,Enedis,2018,E,010530201,2 RUE MAL DE LATTRE DE TASSIGNY,BOURG-EN-BRESSE,R,"72,40029",27
783,Enedis,2018,E,010530201,24 BOULEVARD DU MARECHAL LECLERC,BOURG-EN-BRESSE,R,"43,53981",19
784,Enedis,2018,E,010530201,28 BOULEVARD DU MARECHAL LECLERC,BOURG-EN-BRESSE,R,"36,26085",16
785,Enedis,2018,E,010530201,30 B RUE DU 23E REGIMENT D INFANTERIE,BOURG-EN-BRESSE,R,"60,16482",22
786,Enedis,2018,E,010530201,7 RUE DU 23E REGIMENT D INFANTERIE,BOURG-EN-BRESSE,R,"31,35294",21
787,Enedis,2018,E,010530201,99 RUE GENERAL VADOT,BOURG-EN-BRESSE,R,"22,65373",17
788,Enedis,2018,E,010530201,669 RUE DE LA CHAMBIERE,BOURG-EN-BRESSE,R,"47,89517",17
789,Enedis,2018,E,010530201,12 RUE DE LA CITADELLE,BOURG-EN-BRESSE,R,"18,31175",10
790,Enedis,2018,E,010530201,4 BOULEVARD DU MARECHAL LECLERC,BOURG-EN-BRESSE,R,"76,22366",27
791,Enedis,2018,E,010530201,4 RUE DOCTEUR ROUX,BOURG-EN-BRESSE,R,"31,49623",15
792,Enedis,2018,E,010530201,79 RUE GENERAL VADOT,BOURG-EN-BRESSE,R,"16,9914",15
793,Enedis,2018,E,010530201,22 BOULEVARD DU MARECHAL LECLERC,BOURG-EN-BRESSE,R,"26,57913",16
794,Enedis,2018,E,010530201,12 RUE DU 23E REGIMENT D INFANTERIE,BOURG-EN-BRESSE,R,"37,07298",10
795,Enedis,2018,E,010530201,14 BOULEVARD DU MARECHAL LECLERC,BOURG-EN-BRESSE,R,"12,50987",10
796,Enedis,2018,E,010530201,21 AVENUE DE MACON,BOURG-EN-BRESSE,R,"31,59141",11
797,Enedis,2018,E,010530201,9 RUE DOCTEUR ROUX,BOURG-EN-BRESSE,R,"14,67863",11
798,Enedis,2018,E,010530201,6 RUE ERNEST CHAUDOUET,BOURG-EN-BRESSE,R,"17,18513",11
799,Enedis,2018,E,010530201,2 RUE DU 23E REGIMENT D INFANTERIE,BOURG-EN-BRESSE,T,"163,17507",1
800,Enedis,2018,E,010530201,32 B AVENUE DES ANCIENS COMBATTANTS,BOURG-EN-BRESSE,T,"74,13082",1
801,Enedis,2018,E,010530201,50 RUE DU PAVILLON,BOURG-EN-BRESSE,T,"532,99346",2
802,Enedis,2018,E,010530201,13 RUE DU 23E REGIMENT D INFANTERIE,BOURG-EN-BRESSE,T,"37,40553",1
803,Enedis,2018,E,010530201,2 RUE DOCTEUR ROUX,BOURG-EN-BRESSE,T,"428,30971",1
804,Enedis,2018,E,010530202,8 RUE DES TULIPES,BOURG-EN-BRESSE,I,"195,23421",1
805,Enedis,2018,E,010530202,24 RUE DE MONTHOLON,BOURG-EN-BRESSE,R,"27,4059",22
806,Enedis,2018,E,010530202,4 RUE LANGEVIN,BOURG-EN-BRESSE,R,"17,75812",10
807,Enedis,2018,E,010530202,15 RUE DES TULIPES,BOURG-EN-BRESSE,R,"15,92832",15
808,Enedis,2018,E,010530202,16 RUE DES TULIPES,BOURG-EN-BRESSE,R,"18,72644",12
809,Enedis,2018,E,010530202,48 AVENUE DU MAIL,BOURG-EN-BRESSE,R,"27,35314",17
810,Enedis,2018,E,010530202,10 RUE DES LILAS,BOURG-EN-BRESSE,R,"39,16237",24
811,Enedis,2018,E,010530202,15 RUE DES MARGUERITES,BOURG-EN-BRESSE,R,"31,7944",14
812,Enedis,2018,E,010530202,11 RUE DES MARGUERITES,BOURG-EN-BRESSE,R,"30,30469",20
813,Enedis,2018,E,010530202,2 RUE LANGEVIN,BOURG-EN-BRESSE,R,"14,1504",10
814,Enedis,2018,E,010530202,17 RUE DES MARGUERITES,BOURG-EN-BRESSE,R,"42,77436",19
815,Enedis,2018,E,010530202,11 RUE DES TULIPES,BOURG-EN-BRESSE,R,"12,56647",13
816,Enedis,2018,E,010530202,13 RUE DES MARGUERITES,BOURG-EN-BRESSE,R,"46,4387",19
817,Enedis,2018,E,010530202,12 RUE DES TULIPES,BOURG-EN-BRESSE,R,"6,73106",14
818,Enedis,2018,E,010530202,31 RUE EUGENE DUBOIS,BOURG-EN-BRESSE,R,"78,0997",10
819,Enedis,2018,E,010530202,8 RUE LANGEVIN,BOURG-EN-BRESSE,R,"29,73769",10
820,Enedis,2018,E,010530202,18 RUE DES LILAS,BOURG-EN-BRESSE,R,"37,61295",19
821,Enedis,2018,E,010530202,9 RUE DES MARGUERITES,BOURG-EN-BRESSE,R,"37,61757",20
822,Enedis,2018,E,010530202,18 RUE DES TULIPES,BOURG-EN-BRESSE,R,"17,46716",12
823,Enedis,2018,E,010530202,28 RUE EUGENE DUBOIS,BOURG-EN-BRESSE,R,"26,12287",16
824,Enedis,2018,E,010530202,19 RUE DES MARGUERITES,BOURG-EN-BRESSE,R,"51,04792",24
825,Enedis,2018,E,010530202,21 RUE DES MARGUERITES,BOURG-EN-BRESSE,R,"39,57217",20
826,Enedis,2018,E,010530202,7 RUE DES LILAS,BOURG-EN-BRESSE,R,"33,55929",20
827,Enedis,2018,E,010530202,5 RUE DES LILAS,BOURG-EN-BRESSE,R,"33,75657",24
828,Enedis,2018,E,010530202,6 RUE LANGEVIN,BOURG-EN-BRESSE,R,"25,22773",10
829,Enedis,2018,E,010530202,14 RUE DES LILAS,BOURG-EN-BRESSE,R,"39,19891",20
830,Enedis,2018,E,010530202,25 B RUE DES LAZARISTES,BOURG-EN-BRESSE,R,"54,82007",40
831,Enedis,2018,E,010530202,8 RUE DES TULIPES,BOURG-EN-BRESSE,R,"14,00532",13
832,Enedis,2018,E,010530202,2 RUE DES PERVENCHES,BOURG-EN-BRESSE,R,"39,54105",20
833,Enedis,2018,E,010530202,10 RUE DES TULIPES,BOURG-EN-BRESSE,R,"7,68297",12
834,Enedis,2018,E,010530202,55 RUE RHIN ET DANUBE,BOURG-EN-BRESSE,R,"18,4304",12
835,Enedis,2018,E,010530202,88 AVENUE DU MAIL,BOURG-EN-BRESSE,R,"21,46121",13
836,Enedis,2018,E,010530202,12 RUE DES LILAS,BOURG-EN-BRESSE,R,"32,12498",19
837,Enedis,2018,E,010530202,26 RUE DE MONTHOLON,BOURG-EN-BRESSE,R,"18,5189",35
838,Enedis,2018,E,010530202,76 B AVENUE DU MAIL,BOURG-EN-BRESSE,T,"127,9871",1
839,Enedis,2018,E,010530202,33 B AVENUE DU MAIL,BOURG-EN-BRESSE,T,"232,94716",1
840,Enedis,2018,E,010530202,6 RUE DES LILAS,BOURG-EN-BRESSE,T,"54,33971",1
841,Enedis,2018,E,010530202,33 AVENUE DU MAIL,BOURG-EN-BRESSE,T,"85,66356",1
842,RTE,2018,E,010530202,24 RUE DENIS PAPIN,BOURG-EN-BRESSE,T,"2556,301",1
843,Enedis,2018,E,010530203,25 AVENUE DE LYON,BOURG-EN-BRESSE,I,"39,98117",1
844,Enedis,2018,E,010530203,48 AVENUE DE LYON,BOURG-EN-BRESSE,I,"93,8515",1
845,Enedis,2018,E,010530203,18 RUE DU PELOUX,BOURG-EN-BRESSE,I,"4,43411",1
846,Enedis,2018,E,010530203,42 RUE DU PELOUX,BOURG-EN-BRESSE,R,"22,53739",15
847,Enedis,2018,E,010530203,5 RUE COMTE DE LA TEYSSONNIERE,BOURG-EN-BRESSE,R,"27,21661",29
848,Enedis,2018,E,010530203,15 AVENUE DE LYON,BOURG-EN-BRESSE,R,"29,25657",29
849,Enedis,2018,E,010530203,54 RUE DU PELOUX,BOURG-EN-BRESSE,R,"12,43059",11
850,Enedis,2018,E,010530203,11 AVENUE DE LYON,BOURG-EN-BRESSE,R,"53,49153",31
851,Enedis,2018,E,010530203,40 RUE DU PELOUX,BOURG-EN-BRESSE,R,"16,21391",15
852,Enedis,2018,E,010530203,6 RUE COMTE DE LA TEYSSONNIERE,BOURG-EN-BRESSE,R,"14,92171",10
853,Enedis,2018,E,010530203,11 RUE GEORGES GUYNEMER,BOURG-EN-BRESSE,R,"83,79257",15
854,Enedis,2018,E,010530203,9 RUE DE L AUBEPIN,BOURG-EN-BRESSE,R,"18,5666",12
855,Enedis,2018,E,010530203,18 RUE COMTE DE LA TEYSSONNIERE,BOURG-EN-BRESSE,R,"86,7893",62
856,Enedis,2018,E,010530203,64 RUE DE MONTHOLON,BOURG-EN-BRESSE,R,"67,69019",24
857,Enedis,2018,E,010530203,37 RUE DE MONTHOLON,BOURG-EN-BRESSE,R,"45,47502",16
858,Enedis,2018,E,010530203,54 A RUE DE MONTHOLON,BOURG-EN-BRESSE,R,"11,76708",10
859,Enedis,2018,E,010530203,7 RUE GEORGES GUYNEMER,BOURG-EN-BRESSE,R,"26,45518",11
860,Enedis,2018,E,010530203,8 B RUE DE L AUBEPIN,BOURG-EN-BRESSE,R,"19,24641",13
861,Enedis,2018,E,010530203,50 RUE DU PELOUX,BOURG-EN-BRESSE,R,"43,29809",11
862,Enedis,2018,E,010530203,6 RUE GEORGES COURTELINE,BOURG-EN-BRESSE,R,"56,79728",14
863,Enedis,2018,E,010530203,9 RUE GIROD DE L AIN,BOURG-EN-BRESSE,R,"15,72692",10
864,Enedis,2018,E,010530203,11 RUE GIROD DE L AIN,BOURG-EN-BRESSE,R,"20,13993",10
865,Enedis,2018,E,010530203,5 B RUE ROLAND GARROS,BOURG-EN-BRESSE,R,"22,44578",20
866,Enedis,2018,E,010530203,12 RUE COMTE DE LA TEYSSONNIERE,BOURG-EN-BRESSE,R,"16,84909",15
867,Enedis,2018,E,010530203,52 RUE DE MONTHOLON,BOURG-EN-BRESSE,R,"53,6019",41
868,Enedis,2018,E,010530203,54 D RUE DE MONTHOLON,BOURG-EN-BRESSE,R,"17,47362",10
869,Enedis,2018,E,010530203,39 RUE DE MONTHOLON,BOURG-EN-BRESSE,R,"41,01715",17
870,Enedis,2018,E,010530203,18 RUE GEORGES GUYNEMER,BOURG-EN-BRESSE,R,"60,40573",39
871,Enedis,2018,E,010530203,56 RUE DE MONTHOLON,BOURG-EN-BRESSE,R,"71,39899",46
872,Enedis,2018,E,010530203,5 A RUE ROLAND GARROS,BOURG-EN-BRESSE,R,"23,42287",20
873,Enedis,2018,E,010530203,54 C RUE DE MONTHOLON,BOURG-EN-BRESSE,R,"15,29707",10
874,Enedis,2018,E,010530203,43 RUE DE MONTHOLON,BOURG-EN-BRESSE,R,"44,57626",37
875,Enedis,2018,E,010530203,32 RUE DU PELOUX,BOURG-EN-BRESSE,T,"40,55093",1
876,Enedis,2018,E,010530203,1 RUE DE MONTHOLON,BOURG-EN-BRESSE,T,"106,42098",1
877,Enedis,2018,E,010530203,52 RUE DU PELOUX,BOURG-EN-BRESSE,T,"229,01529",1
878,Enedis,2018,E,010530203,623 CHEMIN D ETERNAZ,BOURG-EN-BRESSE,T,"139,18066",1
879,Enedis,2018,E,010530301,17 C RUE DOCTEUR NODET,BOURG-EN-BRESSE,R,"29,94845",15
880,Enedis,2018,E,010530301,9 AVENUE DE LA VICTOIRE,BOURG-EN-BRESSE,R,"34,3784",15
881,Enedis,2018,E,010530301,17 A RUE DOCTEUR NODET,BOURG-EN-BRESSE,R,"34,65239",15
882,Enedis,2018,E,010530301,1 RUE VILLENEUVE,BOURG-EN-BRESSE,R,"33,67949",20
883,Enedis,2018,E,010530301,8 RUE DES CERISIERS,BOURG-EN-BRESSE,R,"30,74916",10
884,Enedis,2018,E,010530301,50 B RUE DOCTEUR NODET,BOURG-EN-BRESSE,R,"22,14167",10
885,Enedis,2018,E,010530301,12 B RUE LAMARTINE,BOURG-EN-BRESSE,R,"26,69794",16
886,Enedis,2018,E,010530301,27 AVENUE JEAN JAURES,BOURG-EN-BRESSE,R,"53,42133",20
887,Enedis,2018,E,010530301,4 AVENUE JEAN JAURES,BOURG-EN-BRESSE,R,"32,44807",15
888,Enedis,2018,E,010530301,22 T RUE GENERAL DELESTRAINT,BOURG-EN-BRESSE,R,"24,20151",17
889,Enedis,2018,E,010530301,50 D RUE DOCTEUR NODET,BOURG-EN-BRESSE,R,"22,25373",10
890,Enedis,2018,E,010530301,3 RUE DOCTEUR NODET,BOURG-EN-BRESSE,R,"62,53013",11
891,Enedis,2018,E,010530301,17 B RUE DOCTEUR NODET,BOURG-EN-BRESSE,R,"31,13466",12
892,Enedis,2018,E,010530301,3 RUE LARGILLIERE,BOURG-EN-BRESSE,R,"28,9848",11
893,Enedis,2018,E,010530301,2 RUE GOUNOD,BOURG-EN-BRESSE,R,"92,53006",28
894,Enedis,2018,E,010530301,7 RUE BIZET,BOURG-EN-BRESSE,R,"107,38047",16
895,Enedis,2018,E,010530301,50 F RUE DOCTEUR NODET,BOURG-EN-BRESSE,R,"28,28153",10
896,Enedis,2018,E,010530301,5 RUE BRILLAT SAVARIN,BOURG-EN-BRESSE,R,"42,34561",21
897,Enedis,2018,E,010530301,18 RUE GENERAL DELESTRAINT,BOURG-EN-BRESSE,R,"22,66729",10
898,Enedis,2018,E,010530301,21 A RUE DOCTEUR NODET,BOURG-EN-BRESSE,R,"26,4787",16
899,Enedis,2018,E,010530301,30 BOULEVARD VOLTAIRE,BOURG-EN-BRESSE,R,"50,20794",14
900,Enedis,2018,E,010530301,10 RUE GENERAL DELESTRAINT,BOURG-EN-BRESSE,R,"137,23565",54
901,Enedis,2018,E,010530301,1 RUE GENERAL DELESTRAINT,BOURG-EN-BRESSE,R,"30,23419",13
902,Enedis,2018,E,010530301,5 RUE DES CERISIERS,BOURG-EN-BRESSE,R,"21,25418",12
903,Enedis,2018,E,010530301,22 RUE GENERAL DELESTRAINT,BOURG-EN-BRESSE,R,"20,15155",14
904,Enedis,2018,E,010530301,40 B AVENUE JEAN JAURES,BOURG-EN-BRESSE,R,"10,75041",11
905,Enedis,2018,E,010530301,12 RUE LAMARTINE,BOURG-EN-BRESSE,R,"24,74698",16
906,Enedis,2018,E,010530301,50 G RUE DOCTEUR NODET,BOURG-EN-BRESSE,R,"37,61801",10
907,Enedis,2018,E,010530301,50 C RUE DOCTEUR NODET,BOURG-EN-BRESSE,R,"18,98737",10
908,Enedis,2018,E,010530301,21 B RUE DOCTEUR NODET,BOURG-EN-BRESSE,R,"27,86341",17
909,Enedis,2018,E,010530301,10 RUE DE LA LIBERTE,BOURG-EN-BRESSE,R,"40,66346",29
910,Enedis,2018,E,010530301,31 BOULEVARD VOLTAIRE,BOURG-EN-BRESSE,R,"19,24502",11
911,Enedis,2018,E,010530301,50 A RUE DOCTEUR NODET,BOURG-EN-BRESSE,R,"29,44221",10
912,Enedis,2018,E,010530301,10 B RUE CHARLES TARDY,BOURG-EN-BRESSE,R,"131,27853",18
913,Enedis,2018,E,010530301,11 AVENUE DE LA VICTOIRE,BOURG-EN-BRESSE,R,"40,58624",14
914,Enedis,2018,E,010530301,29 BOULEVARD JULES FERRY,BOURG-EN-BRESSE,R,"28,28097",13
915,Enedis,2018,E,010530301,65 AVENUE JEAN JAURES,BOURG-EN-BRESSE,R,"28,87062",10
916,Enedis,2018,E,010530301,41 AVENUE JEAN JAURES,BOURG-EN-BRESSE,R,"55,48744",14
917,Enedis,2018,E,010530301,17 BOULEVARD JULES FERRY,BOURG-EN-BRESSE,R,"90,32359",26
918,Enedis,2018,E,010530301,2 RUE DU COLONEL GASTALDO,BOURG-EN-BRESSE,R,"45,21415",17
919,Enedis,2018,E,010530301,3 RUE GOUNOD,BOURG-EN-BRESSE,R,"110,75899",28
920,Enedis,2018,E,010530301,5 RUE CORNEILLE,BOURG-EN-BRESSE,R,"17,88048",11
921,Enedis,2018,E,010530301,5 B RUE D YPRES,BOURG-EN-BRESSE,R,"47,93939",19
922,Enedis,2018,E,010530301,13 RUE DE LA LIBERTE,BOURG-EN-BRESSE,R,"37,27515",13
923,Enedis,2018,E,010530301,26 RUE DE CROUY,BOURG-EN-BRESSE,R,"14,05026",10
924,Enedis,2018,E,010530301,11 BOULEVARD VOLTAIRE,BOURG-EN-BRESSE,R,"35,22937",21
925,Enedis,2018,E,010530301,4 RUE GENERAL DELESTRAINT,BOURG-EN-BRESSE,R,"26,3299",17
926,Enedis,2018,E,010530301,30 RUE GENERAL DELESTRAINT,BOURG-EN-BRESSE,R,"111,83471",29
927,Enedis,2018,E,010530301,63 AVENUE JEAN JAURES,BOURG-EN-BRESSE,R,"39,52858",10
928,Enedis,2018,E,010530301,20 AVENUE ALPHONSE BAUDIN,BOURG-EN-BRESSE,R,"33,89747",11
929,Enedis,2018,E,010530301,6 RUE CORNEILLE,BOURG-EN-BRESSE,R,"62,75055",26
930,Enedis,2018,E,010530301,17 AVENUE ALPHONSE BAUDIN,BOURG-EN-BRESSE,R,"30,86356",10
931,Enedis,2018,E,010530301,3 RUE DU COLONEL GASTALDO,BOURG-EN-BRESSE,R,"51,46267",16
932,Enedis,2018,E,010530301,29 RUE DOCTEUR NODET,BOURG-EN-BRESSE,T,"58,59836",1
933,Enedis,2018,E,010530301,40 RUE GENERAL DELESTRAINT,BOURG-EN-BRESSE,T,"103,783",1
934,Enedis,2018,E,010530301,19 AVENUE ALPHONSE BAUDIN,BOURG-EN-BRESSE,T,"59,21621",1
935,Enedis,2018,E,010530301,17 RUE LAMARTINE,BOURG-EN-BRESSE,T,"20,7059",1
936,Enedis,2018,E,010530301,32 AVENUE ALSACE LORRAINE,BOURG-EN-BRESSE,T,"664,64067",1
937,Enedis,2018,E,010530301,27 RUE DOCTEUR NODET,BOURG-EN-BRESSE,T,"64,27021",1
938,Enedis,2018,E,010530301,7 RUE VILLENEUVE,BOURG-EN-BRESSE,T,"228,37371",1
939,Enedis,2018,E,010530301,2 RUE BRILLAT SAVARIN,BOURG-EN-BRESSE,T,"34,95961",1
940,Enedis,2018,E,010530301,34 RUE GENERAL DELESTRAINT,BOURG-EN-BRESSE,T,"28,65181",1
941,Enedis,2018,E,010530301,1 AVENUE PIERRE SEMARD,BOURG-EN-BRESSE,T,"88,09122",1
942,Enedis,2018,E,010530301,24 AVENUE ALPHONSE BAUDIN,BOURG-EN-BRESSE,T,"32,98568",1
943,Enedis,2018,E,010530301,22 AVENUE ALPHONSE BAUDIN,BOURG-EN-BRESSE,T,"12,16086",1
944,Enedis,2018,E,010530301,31 BOULEVARD JULES FERRY,BOURG-EN-BRESSE,T,"49,15405",1
945,Enedis,2018,E,010530301,15 AVENUE DE LA VICTOIRE,BOURG-EN-BRESSE,T,"299,64883",1
946,Enedis,2018,E,010530302,390 BOULEVARD DU 8 MAI 1945,BOURG-EN-BRESSE,I,"566,50383",1
947,Enedis,2018,E,010530302,1 RUE DE SAINT ROCH,BOURG-EN-BRESSE,R,"70,47799",23
948,Enedis,2018,E,010530302,13 RUE DE CROUY,BOURG-EN-BRESSE,R,"37,27635",26
949,Enedis,2018,E,010530302,17 RUE DE LA FRATERNITE,BOURG-EN-BRESSE,R,"22,27507",16
950,Enedis,2018,E,010530302,17 RUE DE CROUY,BOURG-EN-BRESSE,R,"29,3573",19
951,Enedis,2018,E,010530302,2 PLACE DE LA COMMUNE,BOURG-EN-BRESSE,R,"60,52077",10
952,Enedis,2018,E,010530302,3 AVENUE JEAN MARIE VERNE,BOURG-EN-BRESSE,R,"30,03899",22
953,Enedis,2018,E,010530302,17 RUE DU STAND,BOURG-EN-BRESSE,R,"28,18758",20
954,Enedis,2018,E,010530302,4 RUE MARIA GERAL,BOURG-EN-BRESSE,R,"116,10391",14
955,Enedis,2018,E,010530302,9 ALLEE DU 1ER MAI,BOURG-EN-BRESSE,R,"20,98166",13
956,Enedis,2018,E,010530302,26 RUE DE SAINT ROCH,BOURG-EN-BRESSE,R,"15,91881",12
957,Enedis,2018,E,010530302,11 RUE DE CROUY,BOURG-EN-BRESSE,R,"32,65829",29
958,Enedis,2018,E,010530302,12 PLACE DE LA COMMUNE,BOURG-EN-BRESSE,R,"70,61046",12
959,Enedis,2018,E,010530302,16 AVENUE JEAN MARIE VERNE,BOURG-EN-BRESSE,R,"16,68653",10
960,Enedis,2018,E,010530302,15 RUE DE LA FRATERNITE,BOURG-EN-BRESSE,R,"20,02466",12
961,Enedis,2018,E,010530302,62 BOULEVARD VICTOR HUGO,BOURG-EN-BRESSE,R,"120,58998",28
962,Enedis,2018,E,010530302,6 RUE MARIA GERAL,BOURG-EN-BRESSE,R,"255,59698",32
963,Enedis,2018,E,010530302,24 RUE DE SAINT ROCH,BOURG-EN-BRESSE,R,"13,29717",11
964,Enedis,2018,E,010530302,6 PASSAGE LOUISE MICHEL,BOURG-EN-BRESSE,R,"20,86672",12
965,Enedis,2018,E,010530302,16 RUE DES GRAVES,BOURG-EN-BRESSE,R,"67,84302",21
966,Enedis,2018,E,010530302,3 PLACE PERRIER LABALME,BOURG-EN-BRESSE,R,"12,06268",10
967,Enedis,2018,E,010530302,13 B RUE TONY FERRET,BOURG-EN-BRESSE,R,"29,58514",18
968,Enedis,2018,E,010530302,11 RUE CHARLES GUILLON,BOURG-EN-BRESSE,R,"41,85015",11
969,Enedis,2018,E,010530302,5 RUE DU STAND,BOURG-EN-BRESSE,R,"89,839",31
970,Enedis,2018,E,010530302,16 RUE TONY FERRET,BOURG-EN-BRESSE,R,"50,03653",23
971,Enedis,2018,E,010530302,10 AVENUE JEAN MARIE VERNE,BOURG-EN-BRESSE,R,"14,42614",10
972,Enedis,2018,E,010530302,152 BOULEVARD DE BROU,BOURG-EN-BRESSE,R,"349,55138",114
973,Enedis,2018,E,010530302,9 B RUE DE LA FRATERNITE,BOURG-EN-BRESSE,R,"39,1847",36
974,Enedis,2018,E,010530302,13 RUE DU STAND,BOURG-EN-BRESSE,R,"403,97162",49
975,Enedis,2018,E,010530302,1 PLACE DE LA COMMUNE,BOURG-EN-BRESSE,R,"52,61266",10
976,Enedis,2018,E,010530302,20 AVENUE JEAN MARIE VERNE,BOURG-EN-BRESSE,R,"14,13203",18
977,Enedis,2018,E,010530302,140 BOULEVARD DE BROU,BOURG-EN-BRESSE,R,"155,30248",64
978,Enedis,2018,E,010530302,14 AVENUE JEAN MARIE VERNE,BOURG-EN-BRESSE,R,"17,71614",10
979,Enedis,2018,E,010530302,2 PASSAGE LOUISE MICHEL,BOURG-EN-BRESSE,R,"13,14005",10
980,Enedis,2018,E,010530302,9 RUE DU POINT DU JOUR,BOURG-EN-BRESSE,R,"26,57178",20
981,Enedis,2018,E,010530302,18 AVENUE JEAN MARIE VERNE,BOURG-EN-BRESSE,R,"21,30335",19
982,Enedis,2018,E,010530302,4 PASSAGE LOUISE MICHEL,BOURG-EN-BRESSE,R,"12,10896",11
983,Enedis,2018,E,010530302,2 B RUE DE SAINT ROCH,BOURG-EN-BRESSE,R,"114,81191",20
984,Enedis,2018,E,010530302,9 RUE CHARLES GUILLON,BOURG-EN-BRESSE,R,"31,91138",25
985,Enedis,2018,E,010530302,15 RUE DE CROUY,BOURG-EN-BRESSE,R,"40,16011",26
986,Enedis,2018,E,010530302,18 RUE TONY FERRET,BOURG-EN-BRESSE,R,"41,6797",19
987,Enedis,2018,E,010530302,20 RUE DES GRAVES,BOURG-EN-BRESSE,R,"43,3784",15
988,Enedis,2018,E,010530302,12 AVENUE JEAN MARIE VERNE,BOURG-EN-BRESSE,R,"12,65146",10
989,Enedis,2018,E,010530302,5 AVENUE JEAN MARIE VERNE,BOURG-EN-BRESSE,T,"583,02143",1
990,Enedis,2018,E,010530302,4 RUE TONY FERRET,BOURG-EN-BRESSE,T,"136,61895",2
991,Enedis,2018,E,010530302,345 BOULEVARD DU 8 MAI 1945,BOURG-EN-BRESSE,T,"10,11923",1
992,Enedis,2018,E,010530302,166 BOULEVARD DE BROU,BOURG-EN-BRESSE,T,"81,38613",1
993,Enedis,2018,E,010530302,1 AVENUE JEAN MARIE VERNE,BOURG-EN-BRESSE,T,"65,3322",1
994,Enedis,2018,E,010530302,235 RUE LEOPOLD LE HON,BOURG-EN-BRESSE,T,"189,49092",1
995,Enedis,2018,E,010530302,152 BOULEVARD DE BROU,BOURG-EN-BRESSE,T,"648,07483",1
996,Enedis,2018,E,010530302,120 RUE CHARLES DEMIA,BOURG-EN-BRESSE,T,"138,34119",1
997,Enedis,2018,E,010530302,150 BOULEVARD DE BROU,BOURG-EN-BRESSE,T,"21,69103",1
998,Enedis,2018,E,010530302,554 RUE LEOPOLD LE HON,BOURG-EN-BRESSE,T,"447,88839",1
999,Enedis,2018,E,010530302,4 RUE BARA,BOURG-EN-BRESSE,T,"30,16947",1
